{
  "contractName": "ECRecovery",
  "abi": [],
  "bytecode": "0x604c602c600b82828239805160001a60731460008114601c57601e565bfe5b5030600052607381538281f30073000000000000000000000000000000000000000030146080604052600080fd00a165627a7a723058206684c9d2d0ba046e8b4e94d48c69f15a06d25105f94e9514cd6b1ed4516780b30029",
  "deployedBytecode": "0x73000000000000000000000000000000000000000030146080604052600080fd00a165627a7a723058206684c9d2d0ba046e8b4e94d48c69f15a06d25105f94e9514cd6b1ed4516780b30029",
  "sourceMap": "309:1640:43:-;;132:2:-1;166:7;155:9;146:7;137:37;252:7;246:14;243:1;238:23;232:4;229:33;270:1;265:20;;;;222:63;;265:20;274:9;222:63;;298:9;295:1;288:20;328:4;319:7;311:22;352:7;343;336:24",
  "deployedSourceMap": "309:1640:43:-;;;;;;;;",
  "source": "pragma solidity ^0.4.23;\n\n\n/**\n * @title Eliptic curve signature operations\n *\n * @dev Based on https://gist.github.com/axic/5b33912c6f61ae6fd96d6c4a47afde6d\n *\n * TODO Remove this library once solidity supports passing a signature to ecrecover.\n * See https://github.com/ethereum/solidity/issues/864\n *\n */\n\nlibrary ECRecovery {\n\n  /**\n   * @dev Recover signer address from a message by using their signature\n   * @param hash bytes32 message, the hash is the signed message. What is recovered is the signer address.\n   * @param sig bytes signature, the signature is generated using web3.eth.sign()\n   */\n  function recover(bytes32 hash, bytes sig)\n    internal\n    pure\n    returns (address)\n  {\n    bytes32 r;\n    bytes32 s;\n    uint8 v;\n\n    // Check the signature length\n    if (sig.length != 65) {\n      return (address(0));\n    }\n\n    // Divide the signature in r, s and v variables\n    // ecrecover takes the signature parameters, and the only way to get them\n    // currently is to use assembly.\n    // solium-disable-next-line security/no-inline-assembly\n    assembly {\n      r := mload(add(sig, 32))\n      s := mload(add(sig, 64))\n      v := byte(0, mload(add(sig, 96)))\n    }\n\n    // Version of signature should be 27 or 28, but 0 and 1 are also possible versions\n    if (v < 27) {\n      v += 27;\n    }\n\n    // If the version is correct return the signer address\n    if (v != 27 && v != 28) {\n      return (address(0));\n    } else {\n      // solium-disable-next-line arg-overflow\n      return ecrecover(hash, v, r, s);\n    }\n  }\n\n  /**\n   * toEthSignedMessageHash\n   * @dev prefix a bytes32 value with \"\\x19Ethereum Signed Message:\"\n   * @dev and hash the result\n   */\n  function toEthSignedMessageHash(bytes32 hash)\n    internal\n    pure\n    returns (bytes32)\n  {\n    // 32 is the length in bytes of hash,\n    // enforced by the type signature above\n    return keccak256(\n      \"\\x19Ethereum Signed Message:\\n32\",\n      hash\n    );\n  }\n}\n",
  "sourcePath": "openzeppelin-solidity/contracts/ECRecovery.sol",
  "ast": {
    "absolutePath": "openzeppelin-solidity/contracts/ECRecovery.sol",
    "exportedSymbols": {
      "ECRecovery": [
        17801
      ]
    },
    "id": 17802,
    "nodeType": "SourceUnit",
    "nodes": [
      {
        "id": 17725,
        "literals": [
          "solidity",
          "^",
          "0.4",
          ".23"
        ],
        "nodeType": "PragmaDirective",
        "src": "0:24:43"
      },
      {
        "baseContracts": [],
        "contractDependencies": [],
        "contractKind": "library",
        "documentation": "@title Eliptic curve signature operations\n * @dev Based on https://gist.github.com/axic/5b33912c6f61ae6fd96d6c4a47afde6d\n * TODO Remove this library once solidity supports passing a signature to ecrecover.\nSee https://github.com/ethereum/solidity/issues/864\n ",
        "fullyImplemented": true,
        "id": 17801,
        "linearizedBaseContracts": [
          17801
        ],
        "name": "ECRecovery",
        "nodeType": "ContractDefinition",
        "nodes": [
          {
            "body": {
              "id": 17786,
              "nodeType": "Block",
              "src": "695:844:43",
              "statements": [
                {
                  "assignments": [],
                  "declarations": [
                    {
                      "constant": false,
                      "id": 17735,
                      "name": "r",
                      "nodeType": "VariableDeclaration",
                      "scope": 17787,
                      "src": "701:9:43",
                      "stateVariable": false,
                      "storageLocation": "default",
                      "typeDescriptions": {
                        "typeIdentifier": "t_bytes32",
                        "typeString": "bytes32"
                      },
                      "typeName": {
                        "id": 17734,
                        "name": "bytes32",
                        "nodeType": "ElementaryTypeName",
                        "src": "701:7:43",
                        "typeDescriptions": {
                          "typeIdentifier": "t_bytes32",
                          "typeString": "bytes32"
                        }
                      },
                      "value": null,
                      "visibility": "internal"
                    }
                  ],
                  "id": 17736,
                  "initialValue": null,
                  "nodeType": "VariableDeclarationStatement",
                  "src": "701:9:43"
                },
                {
                  "assignments": [],
                  "declarations": [
                    {
                      "constant": false,
                      "id": 17738,
                      "name": "s",
                      "nodeType": "VariableDeclaration",
                      "scope": 17787,
                      "src": "716:9:43",
                      "stateVariable": false,
                      "storageLocation": "default",
                      "typeDescriptions": {
                        "typeIdentifier": "t_bytes32",
                        "typeString": "bytes32"
                      },
                      "typeName": {
                        "id": 17737,
                        "name": "bytes32",
                        "nodeType": "ElementaryTypeName",
                        "src": "716:7:43",
                        "typeDescriptions": {
                          "typeIdentifier": "t_bytes32",
                          "typeString": "bytes32"
                        }
                      },
                      "value": null,
                      "visibility": "internal"
                    }
                  ],
                  "id": 17739,
                  "initialValue": null,
                  "nodeType": "VariableDeclarationStatement",
                  "src": "716:9:43"
                },
                {
                  "assignments": [],
                  "declarations": [
                    {
                      "constant": false,
                      "id": 17741,
                      "name": "v",
                      "nodeType": "VariableDeclaration",
                      "scope": 17787,
                      "src": "731:7:43",
                      "stateVariable": false,
                      "storageLocation": "default",
                      "typeDescriptions": {
                        "typeIdentifier": "t_uint8",
                        "typeString": "uint8"
                      },
                      "typeName": {
                        "id": 17740,
                        "name": "uint8",
                        "nodeType": "ElementaryTypeName",
                        "src": "731:5:43",
                        "typeDescriptions": {
                          "typeIdentifier": "t_uint8",
                          "typeString": "uint8"
                        }
                      },
                      "value": null,
                      "visibility": "internal"
                    }
                  ],
                  "id": 17742,
                  "initialValue": null,
                  "nodeType": "VariableDeclarationStatement",
                  "src": "731:7:43"
                },
                {
                  "condition": {
                    "argumentTypes": null,
                    "commonType": {
                      "typeIdentifier": "t_uint256",
                      "typeString": "uint256"
                    },
                    "id": 17746,
                    "isConstant": false,
                    "isLValue": false,
                    "isPure": false,
                    "lValueRequested": false,
                    "leftExpression": {
                      "argumentTypes": null,
                      "expression": {
                        "argumentTypes": null,
                        "id": 17743,
                        "name": "sig",
                        "nodeType": "Identifier",
                        "overloadedDeclarations": [],
                        "referencedDeclaration": 17729,
                        "src": "783:3:43",
                        "typeDescriptions": {
                          "typeIdentifier": "t_bytes_memory_ptr",
                          "typeString": "bytes memory"
                        }
                      },
                      "id": 17744,
                      "isConstant": false,
                      "isLValue": false,
                      "isPure": false,
                      "lValueRequested": false,
                      "memberName": "length",
                      "nodeType": "MemberAccess",
                      "referencedDeclaration": null,
                      "src": "783:10:43",
                      "typeDescriptions": {
                        "typeIdentifier": "t_uint256",
                        "typeString": "uint256"
                      }
                    },
                    "nodeType": "BinaryOperation",
                    "operator": "!=",
                    "rightExpression": {
                      "argumentTypes": null,
                      "hexValue": "3635",
                      "id": 17745,
                      "isConstant": false,
                      "isLValue": false,
                      "isPure": true,
                      "kind": "number",
                      "lValueRequested": false,
                      "nodeType": "Literal",
                      "src": "797:2:43",
                      "subdenomination": null,
                      "typeDescriptions": {
                        "typeIdentifier": "t_rational_65_by_1",
                        "typeString": "int_const 65"
                      },
                      "value": "65"
                    },
                    "src": "783:16:43",
                    "typeDescriptions": {
                      "typeIdentifier": "t_bool",
                      "typeString": "bool"
                    }
                  },
                  "falseBody": null,
                  "id": 17753,
                  "nodeType": "IfStatement",
                  "src": "779:56:43",
                  "trueBody": {
                    "id": 17752,
                    "nodeType": "Block",
                    "src": "801:34:43",
                    "statements": [
                      {
                        "expression": {
                          "argumentTypes": null,
                          "components": [
                            {
                              "argumentTypes": null,
                              "arguments": [
                                {
                                  "argumentTypes": null,
                                  "hexValue": "30",
                                  "id": 17748,
                                  "isConstant": false,
                                  "isLValue": false,
                                  "isPure": true,
                                  "kind": "number",
                                  "lValueRequested": false,
                                  "nodeType": "Literal",
                                  "src": "825:1:43",
                                  "subdenomination": null,
                                  "typeDescriptions": {
                                    "typeIdentifier": "t_rational_0_by_1",
                                    "typeString": "int_const 0"
                                  },
                                  "value": "0"
                                }
                              ],
                              "expression": {
                                "argumentTypes": [
                                  {
                                    "typeIdentifier": "t_rational_0_by_1",
                                    "typeString": "int_const 0"
                                  }
                                ],
                                "id": 17747,
                                "isConstant": false,
                                "isLValue": false,
                                "isPure": true,
                                "lValueRequested": false,
                                "nodeType": "ElementaryTypeNameExpression",
                                "src": "817:7:43",
                                "typeDescriptions": {
                                  "typeIdentifier": "t_type$_t_address_$",
                                  "typeString": "type(address)"
                                },
                                "typeName": "address"
                              },
                              "id": 17749,
                              "isConstant": false,
                              "isLValue": false,
                              "isPure": true,
                              "kind": "typeConversion",
                              "lValueRequested": false,
                              "names": [],
                              "nodeType": "FunctionCall",
                              "src": "817:10:43",
                              "typeDescriptions": {
                                "typeIdentifier": "t_address",
                                "typeString": "address"
                              }
                            }
                          ],
                          "id": 17750,
                          "isConstant": false,
                          "isInlineArray": false,
                          "isLValue": false,
                          "isPure": true,
                          "lValueRequested": false,
                          "nodeType": "TupleExpression",
                          "src": "816:12:43",
                          "typeDescriptions": {
                            "typeIdentifier": "t_address",
                            "typeString": "address"
                          }
                        },
                        "functionReturnParameters": 17733,
                        "id": 17751,
                        "nodeType": "Return",
                        "src": "809:19:43"
                      }
                    ]
                  }
                },
                {
                  "externalReferences": [
                    {
                      "r": {
                        "declaration": 17735,
                        "isOffset": false,
                        "isSlot": false,
                        "src": "1085:1:43",
                        "valueSize": 1
                      }
                    },
                    {
                      "v": {
                        "declaration": 17741,
                        "isOffset": false,
                        "isSlot": false,
                        "src": "1147:1:43",
                        "valueSize": 1
                      }
                    },
                    {
                      "sig": {
                        "declaration": 17729,
                        "isOffset": false,
                        "isSlot": false,
                        "src": "1100:3:43",
                        "valueSize": 1
                      }
                    },
                    {
                      "s": {
                        "declaration": 17738,
                        "isOffset": false,
                        "isSlot": false,
                        "src": "1116:1:43",
                        "valueSize": 1
                      }
                    },
                    {
                      "sig": {
                        "declaration": 17729,
                        "isOffset": false,
                        "isSlot": false,
                        "src": "1131:3:43",
                        "valueSize": 1
                      }
                    },
                    {
                      "sig": {
                        "declaration": 17729,
                        "isOffset": false,
                        "isSlot": false,
                        "src": "1170:3:43",
                        "valueSize": 1
                      }
                    }
                  ],
                  "id": 17754,
                  "nodeType": "InlineAssembly",
                  "operations": "{\n    r := mload(add(sig, 32))\n    s := mload(add(sig, 64))\n    v := byte(0, mload(add(sig, 96)))\n}",
                  "src": "1068:213:43"
                },
                {
                  "condition": {
                    "argumentTypes": null,
                    "commonType": {
                      "typeIdentifier": "t_uint8",
                      "typeString": "uint8"
                    },
                    "id": 17757,
                    "isConstant": false,
                    "isLValue": false,
                    "isPure": false,
                    "lValueRequested": false,
                    "leftExpression": {
                      "argumentTypes": null,
                      "id": 17755,
                      "name": "v",
                      "nodeType": "Identifier",
                      "overloadedDeclarations": [],
                      "referencedDeclaration": 17741,
                      "src": "1283:1:43",
                      "typeDescriptions": {
                        "typeIdentifier": "t_uint8",
                        "typeString": "uint8"
                      }
                    },
                    "nodeType": "BinaryOperation",
                    "operator": "<",
                    "rightExpression": {
                      "argumentTypes": null,
                      "hexValue": "3237",
                      "id": 17756,
                      "isConstant": false,
                      "isLValue": false,
                      "isPure": true,
                      "kind": "number",
                      "lValueRequested": false,
                      "nodeType": "Literal",
                      "src": "1287:2:43",
                      "subdenomination": null,
                      "typeDescriptions": {
                        "typeIdentifier": "t_rational_27_by_1",
                        "typeString": "int_const 27"
                      },
                      "value": "27"
                    },
                    "src": "1283:6:43",
                    "typeDescriptions": {
                      "typeIdentifier": "t_bool",
                      "typeString": "bool"
                    }
                  },
                  "falseBody": null,
                  "id": 17763,
                  "nodeType": "IfStatement",
                  "src": "1279:34:43",
                  "trueBody": {
                    "id": 17762,
                    "nodeType": "Block",
                    "src": "1291:22:43",
                    "statements": [
                      {
                        "expression": {
                          "argumentTypes": null,
                          "id": 17760,
                          "isConstant": false,
                          "isLValue": false,
                          "isPure": false,
                          "lValueRequested": false,
                          "leftHandSide": {
                            "argumentTypes": null,
                            "id": 17758,
                            "name": "v",
                            "nodeType": "Identifier",
                            "overloadedDeclarations": [],
                            "referencedDeclaration": 17741,
                            "src": "1299:1:43",
                            "typeDescriptions": {
                              "typeIdentifier": "t_uint8",
                              "typeString": "uint8"
                            }
                          },
                          "nodeType": "Assignment",
                          "operator": "+=",
                          "rightHandSide": {
                            "argumentTypes": null,
                            "hexValue": "3237",
                            "id": 17759,
                            "isConstant": false,
                            "isLValue": false,
                            "isPure": true,
                            "kind": "number",
                            "lValueRequested": false,
                            "nodeType": "Literal",
                            "src": "1304:2:43",
                            "subdenomination": null,
                            "typeDescriptions": {
                              "typeIdentifier": "t_rational_27_by_1",
                              "typeString": "int_const 27"
                            },
                            "value": "27"
                          },
                          "src": "1299:7:43",
                          "typeDescriptions": {
                            "typeIdentifier": "t_uint8",
                            "typeString": "uint8"
                          }
                        },
                        "id": 17761,
                        "nodeType": "ExpressionStatement",
                        "src": "1299:7:43"
                      }
                    ]
                  }
                },
                {
                  "condition": {
                    "argumentTypes": null,
                    "commonType": {
                      "typeIdentifier": "t_bool",
                      "typeString": "bool"
                    },
                    "id": 17770,
                    "isConstant": false,
                    "isLValue": false,
                    "isPure": false,
                    "lValueRequested": false,
                    "leftExpression": {
                      "argumentTypes": null,
                      "commonType": {
                        "typeIdentifier": "t_uint8",
                        "typeString": "uint8"
                      },
                      "id": 17766,
                      "isConstant": false,
                      "isLValue": false,
                      "isPure": false,
                      "lValueRequested": false,
                      "leftExpression": {
                        "argumentTypes": null,
                        "id": 17764,
                        "name": "v",
                        "nodeType": "Identifier",
                        "overloadedDeclarations": [],
                        "referencedDeclaration": 17741,
                        "src": "1382:1:43",
                        "typeDescriptions": {
                          "typeIdentifier": "t_uint8",
                          "typeString": "uint8"
                        }
                      },
                      "nodeType": "BinaryOperation",
                      "operator": "!=",
                      "rightExpression": {
                        "argumentTypes": null,
                        "hexValue": "3237",
                        "id": 17765,
                        "isConstant": false,
                        "isLValue": false,
                        "isPure": true,
                        "kind": "number",
                        "lValueRequested": false,
                        "nodeType": "Literal",
                        "src": "1387:2:43",
                        "subdenomination": null,
                        "typeDescriptions": {
                          "typeIdentifier": "t_rational_27_by_1",
                          "typeString": "int_const 27"
                        },
                        "value": "27"
                      },
                      "src": "1382:7:43",
                      "typeDescriptions": {
                        "typeIdentifier": "t_bool",
                        "typeString": "bool"
                      }
                    },
                    "nodeType": "BinaryOperation",
                    "operator": "&&",
                    "rightExpression": {
                      "argumentTypes": null,
                      "commonType": {
                        "typeIdentifier": "t_uint8",
                        "typeString": "uint8"
                      },
                      "id": 17769,
                      "isConstant": false,
                      "isLValue": false,
                      "isPure": false,
                      "lValueRequested": false,
                      "leftExpression": {
                        "argumentTypes": null,
                        "id": 17767,
                        "name": "v",
                        "nodeType": "Identifier",
                        "overloadedDeclarations": [],
                        "referencedDeclaration": 17741,
                        "src": "1393:1:43",
                        "typeDescriptions": {
                          "typeIdentifier": "t_uint8",
                          "typeString": "uint8"
                        }
                      },
                      "nodeType": "BinaryOperation",
                      "operator": "!=",
                      "rightExpression": {
                        "argumentTypes": null,
                        "hexValue": "3238",
                        "id": 17768,
                        "isConstant": false,
                        "isLValue": false,
                        "isPure": true,
                        "kind": "number",
                        "lValueRequested": false,
                        "nodeType": "Literal",
                        "src": "1398:2:43",
                        "subdenomination": null,
                        "typeDescriptions": {
                          "typeIdentifier": "t_rational_28_by_1",
                          "typeString": "int_const 28"
                        },
                        "value": "28"
                      },
                      "src": "1393:7:43",
                      "typeDescriptions": {
                        "typeIdentifier": "t_bool",
                        "typeString": "bool"
                      }
                    },
                    "src": "1382:18:43",
                    "typeDescriptions": {
                      "typeIdentifier": "t_bool",
                      "typeString": "bool"
                    }
                  },
                  "falseBody": {
                    "id": 17784,
                    "nodeType": "Block",
                    "src": "1442:93:43",
                    "statements": [
                      {
                        "expression": {
                          "argumentTypes": null,
                          "arguments": [
                            {
                              "argumentTypes": null,
                              "id": 17778,
                              "name": "hash",
                              "nodeType": "Identifier",
                              "overloadedDeclarations": [],
                              "referencedDeclaration": 17727,
                              "src": "1514:4:43",
                              "typeDescriptions": {
                                "typeIdentifier": "t_bytes32",
                                "typeString": "bytes32"
                              }
                            },
                            {
                              "argumentTypes": null,
                              "id": 17779,
                              "name": "v",
                              "nodeType": "Identifier",
                              "overloadedDeclarations": [],
                              "referencedDeclaration": 17741,
                              "src": "1520:1:43",
                              "typeDescriptions": {
                                "typeIdentifier": "t_uint8",
                                "typeString": "uint8"
                              }
                            },
                            {
                              "argumentTypes": null,
                              "id": 17780,
                              "name": "r",
                              "nodeType": "Identifier",
                              "overloadedDeclarations": [],
                              "referencedDeclaration": 17735,
                              "src": "1523:1:43",
                              "typeDescriptions": {
                                "typeIdentifier": "t_bytes32",
                                "typeString": "bytes32"
                              }
                            },
                            {
                              "argumentTypes": null,
                              "id": 17781,
                              "name": "s",
                              "nodeType": "Identifier",
                              "overloadedDeclarations": [],
                              "referencedDeclaration": 17738,
                              "src": "1526:1:43",
                              "typeDescriptions": {
                                "typeIdentifier": "t_bytes32",
                                "typeString": "bytes32"
                              }
                            }
                          ],
                          "expression": {
                            "argumentTypes": [
                              {
                                "typeIdentifier": "t_bytes32",
                                "typeString": "bytes32"
                              },
                              {
                                "typeIdentifier": "t_uint8",
                                "typeString": "uint8"
                              },
                              {
                                "typeIdentifier": "t_bytes32",
                                "typeString": "bytes32"
                              },
                              {
                                "typeIdentifier": "t_bytes32",
                                "typeString": "bytes32"
                              }
                            ],
                            "id": 17777,
                            "name": "ecrecover",
                            "nodeType": "Identifier",
                            "overloadedDeclarations": [],
                            "referencedDeclaration": 18868,
                            "src": "1504:9:43",
                            "typeDescriptions": {
                              "typeIdentifier": "t_function_ecrecover_pure$_t_bytes32_$_t_uint8_$_t_bytes32_$_t_bytes32_$returns$_t_address_$",
                              "typeString": "function (bytes32,uint8,bytes32,bytes32) pure returns (address)"
                            }
                          },
                          "id": 17782,
                          "isConstant": false,
                          "isLValue": false,
                          "isPure": false,
                          "kind": "functionCall",
                          "lValueRequested": false,
                          "names": [],
                          "nodeType": "FunctionCall",
                          "src": "1504:24:43",
                          "typeDescriptions": {
                            "typeIdentifier": "t_address",
                            "typeString": "address"
                          }
                        },
                        "functionReturnParameters": 17733,
                        "id": 17783,
                        "nodeType": "Return",
                        "src": "1497:31:43"
                      }
                    ]
                  },
                  "id": 17785,
                  "nodeType": "IfStatement",
                  "src": "1378:157:43",
                  "trueBody": {
                    "id": 17776,
                    "nodeType": "Block",
                    "src": "1402:34:43",
                    "statements": [
                      {
                        "expression": {
                          "argumentTypes": null,
                          "components": [
                            {
                              "argumentTypes": null,
                              "arguments": [
                                {
                                  "argumentTypes": null,
                                  "hexValue": "30",
                                  "id": 17772,
                                  "isConstant": false,
                                  "isLValue": false,
                                  "isPure": true,
                                  "kind": "number",
                                  "lValueRequested": false,
                                  "nodeType": "Literal",
                                  "src": "1426:1:43",
                                  "subdenomination": null,
                                  "typeDescriptions": {
                                    "typeIdentifier": "t_rational_0_by_1",
                                    "typeString": "int_const 0"
                                  },
                                  "value": "0"
                                }
                              ],
                              "expression": {
                                "argumentTypes": [
                                  {
                                    "typeIdentifier": "t_rational_0_by_1",
                                    "typeString": "int_const 0"
                                  }
                                ],
                                "id": 17771,
                                "isConstant": false,
                                "isLValue": false,
                                "isPure": true,
                                "lValueRequested": false,
                                "nodeType": "ElementaryTypeNameExpression",
                                "src": "1418:7:43",
                                "typeDescriptions": {
                                  "typeIdentifier": "t_type$_t_address_$",
                                  "typeString": "type(address)"
                                },
                                "typeName": "address"
                              },
                              "id": 17773,
                              "isConstant": false,
                              "isLValue": false,
                              "isPure": true,
                              "kind": "typeConversion",
                              "lValueRequested": false,
                              "names": [],
                              "nodeType": "FunctionCall",
                              "src": "1418:10:43",
                              "typeDescriptions": {
                                "typeIdentifier": "t_address",
                                "typeString": "address"
                              }
                            }
                          ],
                          "id": 17774,
                          "isConstant": false,
                          "isInlineArray": false,
                          "isLValue": false,
                          "isPure": true,
                          "lValueRequested": false,
                          "nodeType": "TupleExpression",
                          "src": "1417:12:43",
                          "typeDescriptions": {
                            "typeIdentifier": "t_address",
                            "typeString": "address"
                          }
                        },
                        "functionReturnParameters": 17733,
                        "id": 17775,
                        "nodeType": "Return",
                        "src": "1410:19:43"
                      }
                    ]
                  }
                }
              ]
            },
            "documentation": "@dev Recover signer address from a message by using their signature\n@param hash bytes32 message, the hash is the signed message. What is recovered is the signer address.\n@param sig bytes signature, the signature is generated using web3.eth.sign()",
            "id": 17787,
            "implemented": true,
            "isConstructor": false,
            "isDeclaredConst": true,
            "modifiers": [],
            "name": "recover",
            "nodeType": "FunctionDefinition",
            "parameters": {
              "id": 17730,
              "nodeType": "ParameterList",
              "parameters": [
                {
                  "constant": false,
                  "id": 17727,
                  "name": "hash",
                  "nodeType": "VariableDeclaration",
                  "scope": 17787,
                  "src": "624:12:43",
                  "stateVariable": false,
                  "storageLocation": "default",
                  "typeDescriptions": {
                    "typeIdentifier": "t_bytes32",
                    "typeString": "bytes32"
                  },
                  "typeName": {
                    "id": 17726,
                    "name": "bytes32",
                    "nodeType": "ElementaryTypeName",
                    "src": "624:7:43",
                    "typeDescriptions": {
                      "typeIdentifier": "t_bytes32",
                      "typeString": "bytes32"
                    }
                  },
                  "value": null,
                  "visibility": "internal"
                },
                {
                  "constant": false,
                  "id": 17729,
                  "name": "sig",
                  "nodeType": "VariableDeclaration",
                  "scope": 17787,
                  "src": "638:9:43",
                  "stateVariable": false,
                  "storageLocation": "default",
                  "typeDescriptions": {
                    "typeIdentifier": "t_bytes_memory_ptr",
                    "typeString": "bytes"
                  },
                  "typeName": {
                    "id": 17728,
                    "name": "bytes",
                    "nodeType": "ElementaryTypeName",
                    "src": "638:5:43",
                    "typeDescriptions": {
                      "typeIdentifier": "t_bytes_storage_ptr",
                      "typeString": "bytes"
                    }
                  },
                  "value": null,
                  "visibility": "internal"
                }
              ],
              "src": "623:25:43"
            },
            "payable": false,
            "returnParameters": {
              "id": 17733,
              "nodeType": "ParameterList",
              "parameters": [
                {
                  "constant": false,
                  "id": 17732,
                  "name": "",
                  "nodeType": "VariableDeclaration",
                  "scope": 17787,
                  "src": "684:7:43",
                  "stateVariable": false,
                  "storageLocation": "default",
                  "typeDescriptions": {
                    "typeIdentifier": "t_address",
                    "typeString": "address"
                  },
                  "typeName": {
                    "id": 17731,
                    "name": "address",
                    "nodeType": "ElementaryTypeName",
                    "src": "684:7:43",
                    "typeDescriptions": {
                      "typeIdentifier": "t_address",
                      "typeString": "address"
                    }
                  },
                  "value": null,
                  "visibility": "internal"
                }
              ],
              "src": "683:9:43"
            },
            "scope": 17801,
            "src": "607:932:43",
            "stateMutability": "pure",
            "superFunction": null,
            "visibility": "internal"
          },
          {
            "body": {
              "id": 17799,
              "nodeType": "Block",
              "src": "1774:173:43",
              "statements": [
                {
                  "expression": {
                    "argumentTypes": null,
                    "arguments": [
                      {
                        "argumentTypes": null,
                        "hexValue": "19457468657265756d205369676e6564204d6573736167653a0a3332",
                        "id": 17795,
                        "isConstant": false,
                        "isLValue": false,
                        "isPure": true,
                        "kind": "string",
                        "lValueRequested": false,
                        "nodeType": "Literal",
                        "src": "1890:34:43",
                        "subdenomination": null,
                        "typeDescriptions": {
                          "typeIdentifier": "t_stringliteral_178a2411ab6fbc1ba11064408972259c558d0e82fd48b0aba3ad81d14f065e73",
                          "typeString": "literal_string \"\u0019Ethereum Signed Message:\n32\""
                        },
                        "value": "\u0019Ethereum Signed Message:\n32"
                      },
                      {
                        "argumentTypes": null,
                        "id": 17796,
                        "name": "hash",
                        "nodeType": "Identifier",
                        "overloadedDeclarations": [],
                        "referencedDeclaration": 17789,
                        "src": "1932:4:43",
                        "typeDescriptions": {
                          "typeIdentifier": "t_bytes32",
                          "typeString": "bytes32"
                        }
                      }
                    ],
                    "expression": {
                      "argumentTypes": [
                        {
                          "typeIdentifier": "t_stringliteral_178a2411ab6fbc1ba11064408972259c558d0e82fd48b0aba3ad81d14f065e73",
                          "typeString": "literal_string \"\u0019Ethereum Signed Message:\n32\""
                        },
                        {
                          "typeIdentifier": "t_bytes32",
                          "typeString": "bytes32"
                        }
                      ],
                      "id": 17794,
                      "name": "keccak256",
                      "nodeType": "Identifier",
                      "overloadedDeclarations": [],
                      "referencedDeclaration": 18870,
                      "src": "1873:9:43",
                      "typeDescriptions": {
                        "typeIdentifier": "t_function_sha3_pure$__$returns$_t_bytes32_$",
                        "typeString": "function () pure returns (bytes32)"
                      }
                    },
                    "id": 17797,
                    "isConstant": false,
                    "isLValue": false,
                    "isPure": false,
                    "kind": "functionCall",
                    "lValueRequested": false,
                    "names": [],
                    "nodeType": "FunctionCall",
                    "src": "1873:69:43",
                    "typeDescriptions": {
                      "typeIdentifier": "t_bytes32",
                      "typeString": "bytes32"
                    }
                  },
                  "functionReturnParameters": 17793,
                  "id": 17798,
                  "nodeType": "Return",
                  "src": "1866:76:43"
                }
              ]
            },
            "documentation": "toEthSignedMessageHash\n@dev prefix a bytes32 value with \"\\x19Ethereum Signed Message:\"\n@dev and hash the result",
            "id": 17800,
            "implemented": true,
            "isConstructor": false,
            "isDeclaredConst": true,
            "modifiers": [],
            "name": "toEthSignedMessageHash",
            "nodeType": "FunctionDefinition",
            "parameters": {
              "id": 17790,
              "nodeType": "ParameterList",
              "parameters": [
                {
                  "constant": false,
                  "id": 17789,
                  "name": "hash",
                  "nodeType": "VariableDeclaration",
                  "scope": 17800,
                  "src": "1714:12:43",
                  "stateVariable": false,
                  "storageLocation": "default",
                  "typeDescriptions": {
                    "typeIdentifier": "t_bytes32",
                    "typeString": "bytes32"
                  },
                  "typeName": {
                    "id": 17788,
                    "name": "bytes32",
                    "nodeType": "ElementaryTypeName",
                    "src": "1714:7:43",
                    "typeDescriptions": {
                      "typeIdentifier": "t_bytes32",
                      "typeString": "bytes32"
                    }
                  },
                  "value": null,
                  "visibility": "internal"
                }
              ],
              "src": "1713:14:43"
            },
            "payable": false,
            "returnParameters": {
              "id": 17793,
              "nodeType": "ParameterList",
              "parameters": [
                {
                  "constant": false,
                  "id": 17792,
                  "name": "",
                  "nodeType": "VariableDeclaration",
                  "scope": 17800,
                  "src": "1763:7:43",
                  "stateVariable": false,
                  "storageLocation": "default",
                  "typeDescriptions": {
                    "typeIdentifier": "t_bytes32",
                    "typeString": "bytes32"
                  },
                  "typeName": {
                    "id": 17791,
                    "name": "bytes32",
                    "nodeType": "ElementaryTypeName",
                    "src": "1763:7:43",
                    "typeDescriptions": {
                      "typeIdentifier": "t_bytes32",
                      "typeString": "bytes32"
                    }
                  },
                  "value": null,
                  "visibility": "internal"
                }
              ],
              "src": "1762:9:43"
            },
            "scope": 17801,
            "src": "1682:265:43",
            "stateMutability": "pure",
            "superFunction": null,
            "visibility": "internal"
          }
        ],
        "scope": 17802,
        "src": "309:1640:43"
      }
    ],
    "src": "0:1950:43"
  },
  "legacyAST": {
    "absolutePath": "openzeppelin-solidity/contracts/ECRecovery.sol",
    "exportedSymbols": {
      "ECRecovery": [
        17801
      ]
    },
    "id": 17802,
    "nodeType": "SourceUnit",
    "nodes": [
      {
        "id": 17725,
        "literals": [
          "solidity",
          "^",
          "0.4",
          ".23"
        ],
        "nodeType": "PragmaDirective",
        "src": "0:24:43"
      },
      {
        "baseContracts": [],
        "contractDependencies": [],
        "contractKind": "library",
        "documentation": "@title Eliptic curve signature operations\n * @dev Based on https://gist.github.com/axic/5b33912c6f61ae6fd96d6c4a47afde6d\n * TODO Remove this library once solidity supports passing a signature to ecrecover.\nSee https://github.com/ethereum/solidity/issues/864\n ",
        "fullyImplemented": true,
        "id": 17801,
        "linearizedBaseContracts": [
          17801
        ],
        "name": "ECRecovery",
        "nodeType": "ContractDefinition",
        "nodes": [
          {
            "body": {
              "id": 17786,
              "nodeType": "Block",
              "src": "695:844:43",
              "statements": [
                {
                  "assignments": [],
                  "declarations": [
                    {
                      "constant": false,
                      "id": 17735,
                      "name": "r",
                      "nodeType": "VariableDeclaration",
                      "scope": 17787,
                      "src": "701:9:43",
                      "stateVariable": false,
                      "storageLocation": "default",
                      "typeDescriptions": {
                        "typeIdentifier": "t_bytes32",
                        "typeString": "bytes32"
                      },
                      "typeName": {
                        "id": 17734,
                        "name": "bytes32",
                        "nodeType": "ElementaryTypeName",
                        "src": "701:7:43",
                        "typeDescriptions": {
                          "typeIdentifier": "t_bytes32",
                          "typeString": "bytes32"
                        }
                      },
                      "value": null,
                      "visibility": "internal"
                    }
                  ],
                  "id": 17736,
                  "initialValue": null,
                  "nodeType": "VariableDeclarationStatement",
                  "src": "701:9:43"
                },
                {
                  "assignments": [],
                  "declarations": [
                    {
                      "constant": false,
                      "id": 17738,
                      "name": "s",
                      "nodeType": "VariableDeclaration",
                      "scope": 17787,
                      "src": "716:9:43",
                      "stateVariable": false,
                      "storageLocation": "default",
                      "typeDescriptions": {
                        "typeIdentifier": "t_bytes32",
                        "typeString": "bytes32"
                      },
                      "typeName": {
                        "id": 17737,
                        "name": "bytes32",
                        "nodeType": "ElementaryTypeName",
                        "src": "716:7:43",
                        "typeDescriptions": {
                          "typeIdentifier": "t_bytes32",
                          "typeString": "bytes32"
                        }
                      },
                      "value": null,
                      "visibility": "internal"
                    }
                  ],
                  "id": 17739,
                  "initialValue": null,
                  "nodeType": "VariableDeclarationStatement",
                  "src": "716:9:43"
                },
                {
                  "assignments": [],
                  "declarations": [
                    {
                      "constant": false,
                      "id": 17741,
                      "name": "v",
                      "nodeType": "VariableDeclaration",
                      "scope": 17787,
                      "src": "731:7:43",
                      "stateVariable": false,
                      "storageLocation": "default",
                      "typeDescriptions": {
                        "typeIdentifier": "t_uint8",
                        "typeString": "uint8"
                      },
                      "typeName": {
                        "id": 17740,
                        "name": "uint8",
                        "nodeType": "ElementaryTypeName",
                        "src": "731:5:43",
                        "typeDescriptions": {
                          "typeIdentifier": "t_uint8",
                          "typeString": "uint8"
                        }
                      },
                      "value": null,
                      "visibility": "internal"
                    }
                  ],
                  "id": 17742,
                  "initialValue": null,
                  "nodeType": "VariableDeclarationStatement",
                  "src": "731:7:43"
                },
                {
                  "condition": {
                    "argumentTypes": null,
                    "commonType": {
                      "typeIdentifier": "t_uint256",
                      "typeString": "uint256"
                    },
                    "id": 17746,
                    "isConstant": false,
                    "isLValue": false,
                    "isPure": false,
                    "lValueRequested": false,
                    "leftExpression": {
                      "argumentTypes": null,
                      "expression": {
                        "argumentTypes": null,
                        "id": 17743,
                        "name": "sig",
                        "nodeType": "Identifier",
                        "overloadedDeclarations": [],
                        "referencedDeclaration": 17729,
                        "src": "783:3:43",
                        "typeDescriptions": {
                          "typeIdentifier": "t_bytes_memory_ptr",
                          "typeString": "bytes memory"
                        }
                      },
                      "id": 17744,
                      "isConstant": false,
                      "isLValue": false,
                      "isPure": false,
                      "lValueRequested": false,
                      "memberName": "length",
                      "nodeType": "MemberAccess",
                      "referencedDeclaration": null,
                      "src": "783:10:43",
                      "typeDescriptions": {
                        "typeIdentifier": "t_uint256",
                        "typeString": "uint256"
                      }
                    },
                    "nodeType": "BinaryOperation",
                    "operator": "!=",
                    "rightExpression": {
                      "argumentTypes": null,
                      "hexValue": "3635",
                      "id": 17745,
                      "isConstant": false,
                      "isLValue": false,
                      "isPure": true,
                      "kind": "number",
                      "lValueRequested": false,
                      "nodeType": "Literal",
                      "src": "797:2:43",
                      "subdenomination": null,
                      "typeDescriptions": {
                        "typeIdentifier": "t_rational_65_by_1",
                        "typeString": "int_const 65"
                      },
                      "value": "65"
                    },
                    "src": "783:16:43",
                    "typeDescriptions": {
                      "typeIdentifier": "t_bool",
                      "typeString": "bool"
                    }
                  },
                  "falseBody": null,
                  "id": 17753,
                  "nodeType": "IfStatement",
                  "src": "779:56:43",
                  "trueBody": {
                    "id": 17752,
                    "nodeType": "Block",
                    "src": "801:34:43",
                    "statements": [
                      {
                        "expression": {
                          "argumentTypes": null,
                          "components": [
                            {
                              "argumentTypes": null,
                              "arguments": [
                                {
                                  "argumentTypes": null,
                                  "hexValue": "30",
                                  "id": 17748,
                                  "isConstant": false,
                                  "isLValue": false,
                                  "isPure": true,
                                  "kind": "number",
                                  "lValueRequested": false,
                                  "nodeType": "Literal",
                                  "src": "825:1:43",
                                  "subdenomination": null,
                                  "typeDescriptions": {
                                    "typeIdentifier": "t_rational_0_by_1",
                                    "typeString": "int_const 0"
                                  },
                                  "value": "0"
                                }
                              ],
                              "expression": {
                                "argumentTypes": [
                                  {
                                    "typeIdentifier": "t_rational_0_by_1",
                                    "typeString": "int_const 0"
                                  }
                                ],
                                "id": 17747,
                                "isConstant": false,
                                "isLValue": false,
                                "isPure": true,
                                "lValueRequested": false,
                                "nodeType": "ElementaryTypeNameExpression",
                                "src": "817:7:43",
                                "typeDescriptions": {
                                  "typeIdentifier": "t_type$_t_address_$",
                                  "typeString": "type(address)"
                                },
                                "typeName": "address"
                              },
                              "id": 17749,
                              "isConstant": false,
                              "isLValue": false,
                              "isPure": true,
                              "kind": "typeConversion",
                              "lValueRequested": false,
                              "names": [],
                              "nodeType": "FunctionCall",
                              "src": "817:10:43",
                              "typeDescriptions": {
                                "typeIdentifier": "t_address",
                                "typeString": "address"
                              }
                            }
                          ],
                          "id": 17750,
                          "isConstant": false,
                          "isInlineArray": false,
                          "isLValue": false,
                          "isPure": true,
                          "lValueRequested": false,
                          "nodeType": "TupleExpression",
                          "src": "816:12:43",
                          "typeDescriptions": {
                            "typeIdentifier": "t_address",
                            "typeString": "address"
                          }
                        },
                        "functionReturnParameters": 17733,
                        "id": 17751,
                        "nodeType": "Return",
                        "src": "809:19:43"
                      }
                    ]
                  }
                },
                {
                  "externalReferences": [
                    {
                      "r": {
                        "declaration": 17735,
                        "isOffset": false,
                        "isSlot": false,
                        "src": "1085:1:43",
                        "valueSize": 1
                      }
                    },
                    {
                      "v": {
                        "declaration": 17741,
                        "isOffset": false,
                        "isSlot": false,
                        "src": "1147:1:43",
                        "valueSize": 1
                      }
                    },
                    {
                      "sig": {
                        "declaration": 17729,
                        "isOffset": false,
                        "isSlot": false,
                        "src": "1100:3:43",
                        "valueSize": 1
                      }
                    },
                    {
                      "s": {
                        "declaration": 17738,
                        "isOffset": false,
                        "isSlot": false,
                        "src": "1116:1:43",
                        "valueSize": 1
                      }
                    },
                    {
                      "sig": {
                        "declaration": 17729,
                        "isOffset": false,
                        "isSlot": false,
                        "src": "1131:3:43",
                        "valueSize": 1
                      }
                    },
                    {
                      "sig": {
                        "declaration": 17729,
                        "isOffset": false,
                        "isSlot": false,
                        "src": "1170:3:43",
                        "valueSize": 1
                      }
                    }
                  ],
                  "id": 17754,
                  "nodeType": "InlineAssembly",
                  "operations": "{\n    r := mload(add(sig, 32))\n    s := mload(add(sig, 64))\n    v := byte(0, mload(add(sig, 96)))\n}",
                  "src": "1068:213:43"
                },
                {
                  "condition": {
                    "argumentTypes": null,
                    "commonType": {
                      "typeIdentifier": "t_uint8",
                      "typeString": "uint8"
                    },
                    "id": 17757,
                    "isConstant": false,
                    "isLValue": false,
                    "isPure": false,
                    "lValueRequested": false,
                    "leftExpression": {
                      "argumentTypes": null,
                      "id": 17755,
                      "name": "v",
                      "nodeType": "Identifier",
                      "overloadedDeclarations": [],
                      "referencedDeclaration": 17741,
                      "src": "1283:1:43",
                      "typeDescriptions": {
                        "typeIdentifier": "t_uint8",
                        "typeString": "uint8"
                      }
                    },
                    "nodeType": "BinaryOperation",
                    "operator": "<",
                    "rightExpression": {
                      "argumentTypes": null,
                      "hexValue": "3237",
                      "id": 17756,
                      "isConstant": false,
                      "isLValue": false,
                      "isPure": true,
                      "kind": "number",
                      "lValueRequested": false,
                      "nodeType": "Literal",
                      "src": "1287:2:43",
                      "subdenomination": null,
                      "typeDescriptions": {
                        "typeIdentifier": "t_rational_27_by_1",
                        "typeString": "int_const 27"
                      },
                      "value": "27"
                    },
                    "src": "1283:6:43",
                    "typeDescriptions": {
                      "typeIdentifier": "t_bool",
                      "typeString": "bool"
                    }
                  },
                  "falseBody": null,
                  "id": 17763,
                  "nodeType": "IfStatement",
                  "src": "1279:34:43",
                  "trueBody": {
                    "id": 17762,
                    "nodeType": "Block",
                    "src": "1291:22:43",
                    "statements": [
                      {
                        "expression": {
                          "argumentTypes": null,
                          "id": 17760,
                          "isConstant": false,
                          "isLValue": false,
                          "isPure": false,
                          "lValueRequested": false,
                          "leftHandSide": {
                            "argumentTypes": null,
                            "id": 17758,
                            "name": "v",
                            "nodeType": "Identifier",
                            "overloadedDeclarations": [],
                            "referencedDeclaration": 17741,
                            "src": "1299:1:43",
                            "typeDescriptions": {
                              "typeIdentifier": "t_uint8",
                              "typeString": "uint8"
                            }
                          },
                          "nodeType": "Assignment",
                          "operator": "+=",
                          "rightHandSide": {
                            "argumentTypes": null,
                            "hexValue": "3237",
                            "id": 17759,
                            "isConstant": false,
                            "isLValue": false,
                            "isPure": true,
                            "kind": "number",
                            "lValueRequested": false,
                            "nodeType": "Literal",
                            "src": "1304:2:43",
                            "subdenomination": null,
                            "typeDescriptions": {
                              "typeIdentifier": "t_rational_27_by_1",
                              "typeString": "int_const 27"
                            },
                            "value": "27"
                          },
                          "src": "1299:7:43",
                          "typeDescriptions": {
                            "typeIdentifier": "t_uint8",
                            "typeString": "uint8"
                          }
                        },
                        "id": 17761,
                        "nodeType": "ExpressionStatement",
                        "src": "1299:7:43"
                      }
                    ]
                  }
                },
                {
                  "condition": {
                    "argumentTypes": null,
                    "commonType": {
                      "typeIdentifier": "t_bool",
                      "typeString": "bool"
                    },
                    "id": 17770,
                    "isConstant": false,
                    "isLValue": false,
                    "isPure": false,
                    "lValueRequested": false,
                    "leftExpression": {
                      "argumentTypes": null,
                      "commonType": {
                        "typeIdentifier": "t_uint8",
                        "typeString": "uint8"
                      },
                      "id": 17766,
                      "isConstant": false,
                      "isLValue": false,
                      "isPure": false,
                      "lValueRequested": false,
                      "leftExpression": {
                        "argumentTypes": null,
                        "id": 17764,
                        "name": "v",
                        "nodeType": "Identifier",
                        "overloadedDeclarations": [],
                        "referencedDeclaration": 17741,
                        "src": "1382:1:43",
                        "typeDescriptions": {
                          "typeIdentifier": "t_uint8",
                          "typeString": "uint8"
                        }
                      },
                      "nodeType": "BinaryOperation",
                      "operator": "!=",
                      "rightExpression": {
                        "argumentTypes": null,
                        "hexValue": "3237",
                        "id": 17765,
                        "isConstant": false,
                        "isLValue": false,
                        "isPure": true,
                        "kind": "number",
                        "lValueRequested": false,
                        "nodeType": "Literal",
                        "src": "1387:2:43",
                        "subdenomination": null,
                        "typeDescriptions": {
                          "typeIdentifier": "t_rational_27_by_1",
                          "typeString": "int_const 27"
                        },
                        "value": "27"
                      },
                      "src": "1382:7:43",
                      "typeDescriptions": {
                        "typeIdentifier": "t_bool",
                        "typeString": "bool"
                      }
                    },
                    "nodeType": "BinaryOperation",
                    "operator": "&&",
                    "rightExpression": {
                      "argumentTypes": null,
                      "commonType": {
                        "typeIdentifier": "t_uint8",
                        "typeString": "uint8"
                      },
                      "id": 17769,
                      "isConstant": false,
                      "isLValue": false,
                      "isPure": false,
                      "lValueRequested": false,
                      "leftExpression": {
                        "argumentTypes": null,
                        "id": 17767,
                        "name": "v",
                        "nodeType": "Identifier",
                        "overloadedDeclarations": [],
                        "referencedDeclaration": 17741,
                        "src": "1393:1:43",
                        "typeDescriptions": {
                          "typeIdentifier": "t_uint8",
                          "typeString": "uint8"
                        }
                      },
                      "nodeType": "BinaryOperation",
                      "operator": "!=",
                      "rightExpression": {
                        "argumentTypes": null,
                        "hexValue": "3238",
                        "id": 17768,
                        "isConstant": false,
                        "isLValue": false,
                        "isPure": true,
                        "kind": "number",
                        "lValueRequested": false,
                        "nodeType": "Literal",
                        "src": "1398:2:43",
                        "subdenomination": null,
                        "typeDescriptions": {
                          "typeIdentifier": "t_rational_28_by_1",
                          "typeString": "int_const 28"
                        },
                        "value": "28"
                      },
                      "src": "1393:7:43",
                      "typeDescriptions": {
                        "typeIdentifier": "t_bool",
                        "typeString": "bool"
                      }
                    },
                    "src": "1382:18:43",
                    "typeDescriptions": {
                      "typeIdentifier": "t_bool",
                      "typeString": "bool"
                    }
                  },
                  "falseBody": {
                    "id": 17784,
                    "nodeType": "Block",
                    "src": "1442:93:43",
                    "statements": [
                      {
                        "expression": {
                          "argumentTypes": null,
                          "arguments": [
                            {
                              "argumentTypes": null,
                              "id": 17778,
                              "name": "hash",
                              "nodeType": "Identifier",
                              "overloadedDeclarations": [],
                              "referencedDeclaration": 17727,
                              "src": "1514:4:43",
                              "typeDescriptions": {
                                "typeIdentifier": "t_bytes32",
                                "typeString": "bytes32"
                              }
                            },
                            {
                              "argumentTypes": null,
                              "id": 17779,
                              "name": "v",
                              "nodeType": "Identifier",
                              "overloadedDeclarations": [],
                              "referencedDeclaration": 17741,
                              "src": "1520:1:43",
                              "typeDescriptions": {
                                "typeIdentifier": "t_uint8",
                                "typeString": "uint8"
                              }
                            },
                            {
                              "argumentTypes": null,
                              "id": 17780,
                              "name": "r",
                              "nodeType": "Identifier",
                              "overloadedDeclarations": [],
                              "referencedDeclaration": 17735,
                              "src": "1523:1:43",
                              "typeDescriptions": {
                                "typeIdentifier": "t_bytes32",
                                "typeString": "bytes32"
                              }
                            },
                            {
                              "argumentTypes": null,
                              "id": 17781,
                              "name": "s",
                              "nodeType": "Identifier",
                              "overloadedDeclarations": [],
                              "referencedDeclaration": 17738,
                              "src": "1526:1:43",
                              "typeDescriptions": {
                                "typeIdentifier": "t_bytes32",
                                "typeString": "bytes32"
                              }
                            }
                          ],
                          "expression": {
                            "argumentTypes": [
                              {
                                "typeIdentifier": "t_bytes32",
                                "typeString": "bytes32"
                              },
                              {
                                "typeIdentifier": "t_uint8",
                                "typeString": "uint8"
                              },
                              {
                                "typeIdentifier": "t_bytes32",
                                "typeString": "bytes32"
                              },
                              {
                                "typeIdentifier": "t_bytes32",
                                "typeString": "bytes32"
                              }
                            ],
                            "id": 17777,
                            "name": "ecrecover",
                            "nodeType": "Identifier",
                            "overloadedDeclarations": [],
                            "referencedDeclaration": 18868,
                            "src": "1504:9:43",
                            "typeDescriptions": {
                              "typeIdentifier": "t_function_ecrecover_pure$_t_bytes32_$_t_uint8_$_t_bytes32_$_t_bytes32_$returns$_t_address_$",
                              "typeString": "function (bytes32,uint8,bytes32,bytes32) pure returns (address)"
                            }
                          },
                          "id": 17782,
                          "isConstant": false,
                          "isLValue": false,
                          "isPure": false,
                          "kind": "functionCall",
                          "lValueRequested": false,
                          "names": [],
                          "nodeType": "FunctionCall",
                          "src": "1504:24:43",
                          "typeDescriptions": {
                            "typeIdentifier": "t_address",
                            "typeString": "address"
                          }
                        },
                        "functionReturnParameters": 17733,
                        "id": 17783,
                        "nodeType": "Return",
                        "src": "1497:31:43"
                      }
                    ]
                  },
                  "id": 17785,
                  "nodeType": "IfStatement",
                  "src": "1378:157:43",
                  "trueBody": {
                    "id": 17776,
                    "nodeType": "Block",
                    "src": "1402:34:43",
                    "statements": [
                      {
                        "expression": {
                          "argumentTypes": null,
                          "components": [
                            {
                              "argumentTypes": null,
                              "arguments": [
                                {
                                  "argumentTypes": null,
                                  "hexValue": "30",
                                  "id": 17772,
                                  "isConstant": false,
                                  "isLValue": false,
                                  "isPure": true,
                                  "kind": "number",
                                  "lValueRequested": false,
                                  "nodeType": "Literal",
                                  "src": "1426:1:43",
                                  "subdenomination": null,
                                  "typeDescriptions": {
                                    "typeIdentifier": "t_rational_0_by_1",
                                    "typeString": "int_const 0"
                                  },
                                  "value": "0"
                                }
                              ],
                              "expression": {
                                "argumentTypes": [
                                  {
                                    "typeIdentifier": "t_rational_0_by_1",
                                    "typeString": "int_const 0"
                                  }
                                ],
                                "id": 17771,
                                "isConstant": false,
                                "isLValue": false,
                                "isPure": true,
                                "lValueRequested": false,
                                "nodeType": "ElementaryTypeNameExpression",
                                "src": "1418:7:43",
                                "typeDescriptions": {
                                  "typeIdentifier": "t_type$_t_address_$",
                                  "typeString": "type(address)"
                                },
                                "typeName": "address"
                              },
                              "id": 17773,
                              "isConstant": false,
                              "isLValue": false,
                              "isPure": true,
                              "kind": "typeConversion",
                              "lValueRequested": false,
                              "names": [],
                              "nodeType": "FunctionCall",
                              "src": "1418:10:43",
                              "typeDescriptions": {
                                "typeIdentifier": "t_address",
                                "typeString": "address"
                              }
                            }
                          ],
                          "id": 17774,
                          "isConstant": false,
                          "isInlineArray": false,
                          "isLValue": false,
                          "isPure": true,
                          "lValueRequested": false,
                          "nodeType": "TupleExpression",
                          "src": "1417:12:43",
                          "typeDescriptions": {
                            "typeIdentifier": "t_address",
                            "typeString": "address"
                          }
                        },
                        "functionReturnParameters": 17733,
                        "id": 17775,
                        "nodeType": "Return",
                        "src": "1410:19:43"
                      }
                    ]
                  }
                }
              ]
            },
            "documentation": "@dev Recover signer address from a message by using their signature\n@param hash bytes32 message, the hash is the signed message. What is recovered is the signer address.\n@param sig bytes signature, the signature is generated using web3.eth.sign()",
            "id": 17787,
            "implemented": true,
            "isConstructor": false,
            "isDeclaredConst": true,
            "modifiers": [],
            "name": "recover",
            "nodeType": "FunctionDefinition",
            "parameters": {
              "id": 17730,
              "nodeType": "ParameterList",
              "parameters": [
                {
                  "constant": false,
                  "id": 17727,
                  "name": "hash",
                  "nodeType": "VariableDeclaration",
                  "scope": 17787,
                  "src": "624:12:43",
                  "stateVariable": false,
                  "storageLocation": "default",
                  "typeDescriptions": {
                    "typeIdentifier": "t_bytes32",
                    "typeString": "bytes32"
                  },
                  "typeName": {
                    "id": 17726,
                    "name": "bytes32",
                    "nodeType": "ElementaryTypeName",
                    "src": "624:7:43",
                    "typeDescriptions": {
                      "typeIdentifier": "t_bytes32",
                      "typeString": "bytes32"
                    }
                  },
                  "value": null,
                  "visibility": "internal"
                },
                {
                  "constant": false,
                  "id": 17729,
                  "name": "sig",
                  "nodeType": "VariableDeclaration",
                  "scope": 17787,
                  "src": "638:9:43",
                  "stateVariable": false,
                  "storageLocation": "default",
                  "typeDescriptions": {
                    "typeIdentifier": "t_bytes_memory_ptr",
                    "typeString": "bytes"
                  },
                  "typeName": {
                    "id": 17728,
                    "name": "bytes",
                    "nodeType": "ElementaryTypeName",
                    "src": "638:5:43",
                    "typeDescriptions": {
                      "typeIdentifier": "t_bytes_storage_ptr",
                      "typeString": "bytes"
                    }
                  },
                  "value": null,
                  "visibility": "internal"
                }
              ],
              "src": "623:25:43"
            },
            "payable": false,
            "returnParameters": {
              "id": 17733,
              "nodeType": "ParameterList",
              "parameters": [
                {
                  "constant": false,
                  "id": 17732,
                  "name": "",
                  "nodeType": "VariableDeclaration",
                  "scope": 17787,
                  "src": "684:7:43",
                  "stateVariable": false,
                  "storageLocation": "default",
                  "typeDescriptions": {
                    "typeIdentifier": "t_address",
                    "typeString": "address"
                  },
                  "typeName": {
                    "id": 17731,
                    "name": "address",
                    "nodeType": "ElementaryTypeName",
                    "src": "684:7:43",
                    "typeDescriptions": {
                      "typeIdentifier": "t_address",
                      "typeString": "address"
                    }
                  },
                  "value": null,
                  "visibility": "internal"
                }
              ],
              "src": "683:9:43"
            },
            "scope": 17801,
            "src": "607:932:43",
            "stateMutability": "pure",
            "superFunction": null,
            "visibility": "internal"
          },
          {
            "body": {
              "id": 17799,
              "nodeType": "Block",
              "src": "1774:173:43",
              "statements": [
                {
                  "expression": {
                    "argumentTypes": null,
                    "arguments": [
                      {
                        "argumentTypes": null,
                        "hexValue": "19457468657265756d205369676e6564204d6573736167653a0a3332",
                        "id": 17795,
                        "isConstant": false,
                        "isLValue": false,
                        "isPure": true,
                        "kind": "string",
                        "lValueRequested": false,
                        "nodeType": "Literal",
                        "src": "1890:34:43",
                        "subdenomination": null,
                        "typeDescriptions": {
                          "typeIdentifier": "t_stringliteral_178a2411ab6fbc1ba11064408972259c558d0e82fd48b0aba3ad81d14f065e73",
                          "typeString": "literal_string \"\u0019Ethereum Signed Message:\n32\""
                        },
                        "value": "\u0019Ethereum Signed Message:\n32"
                      },
                      {
                        "argumentTypes": null,
                        "id": 17796,
                        "name": "hash",
                        "nodeType": "Identifier",
                        "overloadedDeclarations": [],
                        "referencedDeclaration": 17789,
                        "src": "1932:4:43",
                        "typeDescriptions": {
                          "typeIdentifier": "t_bytes32",
                          "typeString": "bytes32"
                        }
                      }
                    ],
                    "expression": {
                      "argumentTypes": [
                        {
                          "typeIdentifier": "t_stringliteral_178a2411ab6fbc1ba11064408972259c558d0e82fd48b0aba3ad81d14f065e73",
                          "typeString": "literal_string \"\u0019Ethereum Signed Message:\n32\""
                        },
                        {
                          "typeIdentifier": "t_bytes32",
                          "typeString": "bytes32"
                        }
                      ],
                      "id": 17794,
                      "name": "keccak256",
                      "nodeType": "Identifier",
                      "overloadedDeclarations": [],
                      "referencedDeclaration": 18870,
                      "src": "1873:9:43",
                      "typeDescriptions": {
                        "typeIdentifier": "t_function_sha3_pure$__$returns$_t_bytes32_$",
                        "typeString": "function () pure returns (bytes32)"
                      }
                    },
                    "id": 17797,
                    "isConstant": false,
                    "isLValue": false,
                    "isPure": false,
                    "kind": "functionCall",
                    "lValueRequested": false,
                    "names": [],
                    "nodeType": "FunctionCall",
                    "src": "1873:69:43",
                    "typeDescriptions": {
                      "typeIdentifier": "t_bytes32",
                      "typeString": "bytes32"
                    }
                  },
                  "functionReturnParameters": 17793,
                  "id": 17798,
                  "nodeType": "Return",
                  "src": "1866:76:43"
                }
              ]
            },
            "documentation": "toEthSignedMessageHash\n@dev prefix a bytes32 value with \"\\x19Ethereum Signed Message:\"\n@dev and hash the result",
            "id": 17800,
            "implemented": true,
            "isConstructor": false,
            "isDeclaredConst": true,
            "modifiers": [],
            "name": "toEthSignedMessageHash",
            "nodeType": "FunctionDefinition",
            "parameters": {
              "id": 17790,
              "nodeType": "ParameterList",
              "parameters": [
                {
                  "constant": false,
                  "id": 17789,
                  "name": "hash",
                  "nodeType": "VariableDeclaration",
                  "scope": 17800,
                  "src": "1714:12:43",
                  "stateVariable": false,
                  "storageLocation": "default",
                  "typeDescriptions": {
                    "typeIdentifier": "t_bytes32",
                    "typeString": "bytes32"
                  },
                  "typeName": {
                    "id": 17788,
                    "name": "bytes32",
                    "nodeType": "ElementaryTypeName",
                    "src": "1714:7:43",
                    "typeDescriptions": {
                      "typeIdentifier": "t_bytes32",
                      "typeString": "bytes32"
                    }
                  },
                  "value": null,
                  "visibility": "internal"
                }
              ],
              "src": "1713:14:43"
            },
            "payable": false,
            "returnParameters": {
              "id": 17793,
              "nodeType": "ParameterList",
              "parameters": [
                {
                  "constant": false,
                  "id": 17792,
                  "name": "",
                  "nodeType": "VariableDeclaration",
                  "scope": 17800,
                  "src": "1763:7:43",
                  "stateVariable": false,
                  "storageLocation": "default",
                  "typeDescriptions": {
                    "typeIdentifier": "t_bytes32",
                    "typeString": "bytes32"
                  },
                  "typeName": {
                    "id": 17791,
                    "name": "bytes32",
                    "nodeType": "ElementaryTypeName",
                    "src": "1763:7:43",
                    "typeDescriptions": {
                      "typeIdentifier": "t_bytes32",
                      "typeString": "bytes32"
                    }
                  },
                  "value": null,
                  "visibility": "internal"
                }
              ],
              "src": "1762:9:43"
            },
            "scope": 17801,
            "src": "1682:265:43",
            "stateMutability": "pure",
            "superFunction": null,
            "visibility": "internal"
          }
        ],
        "scope": 17802,
        "src": "309:1640:43"
      }
    ],
    "src": "0:1950:43"
  },
  "compiler": {
    "name": "solc",
    "version": "0.4.24+commit.e67f0147.Emscripten.clang"
  },
  "networks": {},
  "schemaVersion": "2.0.0",
  "updatedAt": "2018-07-21T19:08:34.410Z"
}