{
  "contractName": "SafeMath",
  "abi": [],
  "bytecode": "0x604c602c600b82828239805160001a60731460008114601c57601e565bfe5b5030600052607381538281f30073000000000000000000000000000000000000000030146080604052600080fd00a165627a7a72305820176b4a80304ca13e9ea2f03eb95f0be8e1a1e9644ac92a6cdcfff59fbaba09c80029",
  "deployedBytecode": "0x73000000000000000000000000000000000000000030146080604052600080fd00a165627a7a72305820176b4a80304ca13e9ea2f03eb95f0be8e1a1e9644ac92a6cdcfff59fbaba09c80029",
  "sourceMap": "117:1222:45:-;;132:2:-1;166:7;155:9;146:7;137:37;252:7;246:14;243:1;238:23;232:4;229:33;270:1;265:20;;;;222:63;;265:20;274:9;222:63;;298:9;295:1;288:20;328:4;319:7;311:22;352:7;343;336:24",
  "deployedSourceMap": "117:1222:45:-;;;;;;;;",
  "source": "pragma solidity ^0.4.23;\n\n\n/**\n * @title SafeMath\n * @dev Math operations with safety checks that throw on error\n */\nlibrary SafeMath {\n\n  /**\n  * @dev Multiplies two numbers, throws on overflow.\n  */\n  function mul(uint256 a, uint256 b) internal pure returns (uint256 c) {\n    // Gas optimization: this is cheaper than asserting 'a' not being zero, but the\n    // benefit is lost if 'b' is also tested.\n    // See: https://github.com/OpenZeppelin/openzeppelin-solidity/pull/522\n    if (a == 0) {\n      return 0;\n    }\n\n    c = a * b;\n    assert(c / a == b);\n    return c;\n  }\n\n  /**\n  * @dev Integer division of two numbers, truncating the quotient.\n  */\n  function div(uint256 a, uint256 b) internal pure returns (uint256) {\n    // assert(b > 0); // Solidity automatically throws when dividing by 0\n    // uint256 c = a / b;\n    // assert(a == b * c + a % b); // There is no case in which this doesn't hold\n    return a / b;\n  }\n\n  /**\n  * @dev Subtracts two numbers, throws on overflow (i.e. if subtrahend is greater than minuend).\n  */\n  function sub(uint256 a, uint256 b) internal pure returns (uint256) {\n    assert(b <= a);\n    return a - b;\n  }\n\n  /**\n  * @dev Adds two numbers, throws on overflow.\n  */\n  function add(uint256 a, uint256 b) internal pure returns (uint256 c) {\n    c = a + b;\n    assert(c >= a);\n    return c;\n  }\n}\n",
  "sourcePath": "openzeppelin-solidity\\contracts\\math\\SafeMath.sol",
  "ast": {
    "absolutePath": "openzeppelin-solidity/contracts/math/SafeMath.sol",
    "exportedSymbols": {
      "SafeMath": [
        17927
      ]
    },
    "id": 17928,
    "nodeType": "SourceUnit",
    "nodes": [
      {
        "id": 17835,
        "literals": [
          "solidity",
          "^",
          "0.4",
          ".23"
        ],
        "nodeType": "PragmaDirective",
        "src": "0:24:45"
      },
      {
        "baseContracts": [],
        "contractDependencies": [],
        "contractKind": "library",
        "documentation": "@title SafeMath\n@dev Math operations with safety checks that throw on error",
        "fullyImplemented": true,
        "id": 17927,
        "linearizedBaseContracts": [
          17927
        ],
        "name": "SafeMath",
        "nodeType": "ContractDefinition",
        "nodes": [
          {
            "body": {
              "id": 17867,
              "nodeType": "Block",
              "src": "272:304:45",
              "statements": [
                {
                  "condition": {
                    "argumentTypes": null,
                    "commonType": {
                      "typeIdentifier": "t_uint256",
                      "typeString": "uint256"
                    },
                    "id": 17846,
                    "isConstant": false,
                    "isLValue": false,
                    "isPure": false,
                    "lValueRequested": false,
                    "leftExpression": {
                      "argumentTypes": null,
                      "id": 17844,
                      "name": "a",
                      "nodeType": "Identifier",
                      "overloadedDeclarations": [],
                      "referencedDeclaration": 17837,
                      "src": "487:1:45",
                      "typeDescriptions": {
                        "typeIdentifier": "t_uint256",
                        "typeString": "uint256"
                      }
                    },
                    "nodeType": "BinaryOperation",
                    "operator": "==",
                    "rightExpression": {
                      "argumentTypes": null,
                      "hexValue": "30",
                      "id": 17845,
                      "isConstant": false,
                      "isLValue": false,
                      "isPure": true,
                      "kind": "number",
                      "lValueRequested": false,
                      "nodeType": "Literal",
                      "src": "492:1:45",
                      "subdenomination": null,
                      "typeDescriptions": {
                        "typeIdentifier": "t_rational_0_by_1",
                        "typeString": "int_const 0"
                      },
                      "value": "0"
                    },
                    "src": "487:6:45",
                    "typeDescriptions": {
                      "typeIdentifier": "t_bool",
                      "typeString": "bool"
                    }
                  },
                  "falseBody": null,
                  "id": 17850,
                  "nodeType": "IfStatement",
                  "src": "483:35:45",
                  "trueBody": {
                    "id": 17849,
                    "nodeType": "Block",
                    "src": "495:23:45",
                    "statements": [
                      {
                        "expression": {
                          "argumentTypes": null,
                          "hexValue": "30",
                          "id": 17847,
                          "isConstant": false,
                          "isLValue": false,
                          "isPure": true,
                          "kind": "number",
                          "lValueRequested": false,
                          "nodeType": "Literal",
                          "src": "510:1:45",
                          "subdenomination": null,
                          "typeDescriptions": {
                            "typeIdentifier": "t_rational_0_by_1",
                            "typeString": "int_const 0"
                          },
                          "value": "0"
                        },
                        "functionReturnParameters": 17843,
                        "id": 17848,
                        "nodeType": "Return",
                        "src": "503:8:45"
                      }
                    ]
                  }
                },
                {
                  "expression": {
                    "argumentTypes": null,
                    "id": 17855,
                    "isConstant": false,
                    "isLValue": false,
                    "isPure": false,
                    "lValueRequested": false,
                    "leftHandSide": {
                      "argumentTypes": null,
                      "id": 17851,
                      "name": "c",
                      "nodeType": "Identifier",
                      "overloadedDeclarations": [],
                      "referencedDeclaration": 17842,
                      "src": "524:1:45",
                      "typeDescriptions": {
                        "typeIdentifier": "t_uint256",
                        "typeString": "uint256"
                      }
                    },
                    "nodeType": "Assignment",
                    "operator": "=",
                    "rightHandSide": {
                      "argumentTypes": null,
                      "commonType": {
                        "typeIdentifier": "t_uint256",
                        "typeString": "uint256"
                      },
                      "id": 17854,
                      "isConstant": false,
                      "isLValue": false,
                      "isPure": false,
                      "lValueRequested": false,
                      "leftExpression": {
                        "argumentTypes": null,
                        "id": 17852,
                        "name": "a",
                        "nodeType": "Identifier",
                        "overloadedDeclarations": [],
                        "referencedDeclaration": 17837,
                        "src": "528:1:45",
                        "typeDescriptions": {
                          "typeIdentifier": "t_uint256",
                          "typeString": "uint256"
                        }
                      },
                      "nodeType": "BinaryOperation",
                      "operator": "*",
                      "rightExpression": {
                        "argumentTypes": null,
                        "id": 17853,
                        "name": "b",
                        "nodeType": "Identifier",
                        "overloadedDeclarations": [],
                        "referencedDeclaration": 17839,
                        "src": "532:1:45",
                        "typeDescriptions": {
                          "typeIdentifier": "t_uint256",
                          "typeString": "uint256"
                        }
                      },
                      "src": "528:5:45",
                      "typeDescriptions": {
                        "typeIdentifier": "t_uint256",
                        "typeString": "uint256"
                      }
                    },
                    "src": "524:9:45",
                    "typeDescriptions": {
                      "typeIdentifier": "t_uint256",
                      "typeString": "uint256"
                    }
                  },
                  "id": 17856,
                  "nodeType": "ExpressionStatement",
                  "src": "524:9:45"
                },
                {
                  "expression": {
                    "argumentTypes": null,
                    "arguments": [
                      {
                        "argumentTypes": null,
                        "commonType": {
                          "typeIdentifier": "t_uint256",
                          "typeString": "uint256"
                        },
                        "id": 17862,
                        "isConstant": false,
                        "isLValue": false,
                        "isPure": false,
                        "lValueRequested": false,
                        "leftExpression": {
                          "argumentTypes": null,
                          "commonType": {
                            "typeIdentifier": "t_uint256",
                            "typeString": "uint256"
                          },
                          "id": 17860,
                          "isConstant": false,
                          "isLValue": false,
                          "isPure": false,
                          "lValueRequested": false,
                          "leftExpression": {
                            "argumentTypes": null,
                            "id": 17858,
                            "name": "c",
                            "nodeType": "Identifier",
                            "overloadedDeclarations": [],
                            "referencedDeclaration": 17842,
                            "src": "546:1:45",
                            "typeDescriptions": {
                              "typeIdentifier": "t_uint256",
                              "typeString": "uint256"
                            }
                          },
                          "nodeType": "BinaryOperation",
                          "operator": "/",
                          "rightExpression": {
                            "argumentTypes": null,
                            "id": 17859,
                            "name": "a",
                            "nodeType": "Identifier",
                            "overloadedDeclarations": [],
                            "referencedDeclaration": 17837,
                            "src": "550:1:45",
                            "typeDescriptions": {
                              "typeIdentifier": "t_uint256",
                              "typeString": "uint256"
                            }
                          },
                          "src": "546:5:45",
                          "typeDescriptions": {
                            "typeIdentifier": "t_uint256",
                            "typeString": "uint256"
                          }
                        },
                        "nodeType": "BinaryOperation",
                        "operator": "==",
                        "rightExpression": {
                          "argumentTypes": null,
                          "id": 17861,
                          "name": "b",
                          "nodeType": "Identifier",
                          "overloadedDeclarations": [],
                          "referencedDeclaration": 17839,
                          "src": "555:1:45",
                          "typeDescriptions": {
                            "typeIdentifier": "t_uint256",
                            "typeString": "uint256"
                          }
                        },
                        "src": "546:10:45",
                        "typeDescriptions": {
                          "typeIdentifier": "t_bool",
                          "typeString": "bool"
                        }
                      }
                    ],
                    "expression": {
                      "argumentTypes": [
                        {
                          "typeIdentifier": "t_bool",
                          "typeString": "bool"
                        }
                      ],
                      "id": 17857,
                      "name": "assert",
                      "nodeType": "Identifier",
                      "overloadedDeclarations": [],
                      "referencedDeclaration": 18865,
                      "src": "539:6:45",
                      "typeDescriptions": {
                        "typeIdentifier": "t_function_assert_pure$_t_bool_$returns$__$",
                        "typeString": "function (bool) pure"
                      }
                    },
                    "id": 17863,
                    "isConstant": false,
                    "isLValue": false,
                    "isPure": false,
                    "kind": "functionCall",
                    "lValueRequested": false,
                    "names": [],
                    "nodeType": "FunctionCall",
                    "src": "539:18:45",
                    "typeDescriptions": {
                      "typeIdentifier": "t_tuple$__$",
                      "typeString": "tuple()"
                    }
                  },
                  "id": 17864,
                  "nodeType": "ExpressionStatement",
                  "src": "539:18:45"
                },
                {
                  "expression": {
                    "argumentTypes": null,
                    "id": 17865,
                    "name": "c",
                    "nodeType": "Identifier",
                    "overloadedDeclarations": [],
                    "referencedDeclaration": 17842,
                    "src": "570:1:45",
                    "typeDescriptions": {
                      "typeIdentifier": "t_uint256",
                      "typeString": "uint256"
                    }
                  },
                  "functionReturnParameters": 17843,
                  "id": 17866,
                  "nodeType": "Return",
                  "src": "563:8:45"
                }
              ]
            },
            "documentation": "@dev Multiplies two numbers, throws on overflow.",
            "id": 17868,
            "implemented": true,
            "isConstructor": false,
            "isDeclaredConst": true,
            "modifiers": [],
            "name": "mul",
            "nodeType": "FunctionDefinition",
            "parameters": {
              "id": 17840,
              "nodeType": "ParameterList",
              "parameters": [
                {
                  "constant": false,
                  "id": 17837,
                  "name": "a",
                  "nodeType": "VariableDeclaration",
                  "scope": 17868,
                  "src": "216:9:45",
                  "stateVariable": false,
                  "storageLocation": "default",
                  "typeDescriptions": {
                    "typeIdentifier": "t_uint256",
                    "typeString": "uint256"
                  },
                  "typeName": {
                    "id": 17836,
                    "name": "uint256",
                    "nodeType": "ElementaryTypeName",
                    "src": "216:7:45",
                    "typeDescriptions": {
                      "typeIdentifier": "t_uint256",
                      "typeString": "uint256"
                    }
                  },
                  "value": null,
                  "visibility": "internal"
                },
                {
                  "constant": false,
                  "id": 17839,
                  "name": "b",
                  "nodeType": "VariableDeclaration",
                  "scope": 17868,
                  "src": "227:9:45",
                  "stateVariable": false,
                  "storageLocation": "default",
                  "typeDescriptions": {
                    "typeIdentifier": "t_uint256",
                    "typeString": "uint256"
                  },
                  "typeName": {
                    "id": 17838,
                    "name": "uint256",
                    "nodeType": "ElementaryTypeName",
                    "src": "227:7:45",
                    "typeDescriptions": {
                      "typeIdentifier": "t_uint256",
                      "typeString": "uint256"
                    }
                  },
                  "value": null,
                  "visibility": "internal"
                }
              ],
              "src": "215:22:45"
            },
            "payable": false,
            "returnParameters": {
              "id": 17843,
              "nodeType": "ParameterList",
              "parameters": [
                {
                  "constant": false,
                  "id": 17842,
                  "name": "c",
                  "nodeType": "VariableDeclaration",
                  "scope": 17868,
                  "src": "261:9:45",
                  "stateVariable": false,
                  "storageLocation": "default",
                  "typeDescriptions": {
                    "typeIdentifier": "t_uint256",
                    "typeString": "uint256"
                  },
                  "typeName": {
                    "id": 17841,
                    "name": "uint256",
                    "nodeType": "ElementaryTypeName",
                    "src": "261:7:45",
                    "typeDescriptions": {
                      "typeIdentifier": "t_uint256",
                      "typeString": "uint256"
                    }
                  },
                  "value": null,
                  "visibility": "internal"
                }
              ],
              "src": "260:11:45"
            },
            "scope": 17927,
            "src": "203:373:45",
            "stateMutability": "pure",
            "superFunction": null,
            "visibility": "internal"
          },
          {
            "body": {
              "id": 17881,
              "nodeType": "Block",
              "src": "725:205:45",
              "statements": [
                {
                  "expression": {
                    "argumentTypes": null,
                    "commonType": {
                      "typeIdentifier": "t_uint256",
                      "typeString": "uint256"
                    },
                    "id": 17879,
                    "isConstant": false,
                    "isLValue": false,
                    "isPure": false,
                    "lValueRequested": false,
                    "leftExpression": {
                      "argumentTypes": null,
                      "id": 17877,
                      "name": "a",
                      "nodeType": "Identifier",
                      "overloadedDeclarations": [],
                      "referencedDeclaration": 17870,
                      "src": "920:1:45",
                      "typeDescriptions": {
                        "typeIdentifier": "t_uint256",
                        "typeString": "uint256"
                      }
                    },
                    "nodeType": "BinaryOperation",
                    "operator": "/",
                    "rightExpression": {
                      "argumentTypes": null,
                      "id": 17878,
                      "name": "b",
                      "nodeType": "Identifier",
                      "overloadedDeclarations": [],
                      "referencedDeclaration": 17872,
                      "src": "924:1:45",
                      "typeDescriptions": {
                        "typeIdentifier": "t_uint256",
                        "typeString": "uint256"
                      }
                    },
                    "src": "920:5:45",
                    "typeDescriptions": {
                      "typeIdentifier": "t_uint256",
                      "typeString": "uint256"
                    }
                  },
                  "functionReturnParameters": 17876,
                  "id": 17880,
                  "nodeType": "Return",
                  "src": "913:12:45"
                }
              ]
            },
            "documentation": "@dev Integer division of two numbers, truncating the quotient.",
            "id": 17882,
            "implemented": true,
            "isConstructor": false,
            "isDeclaredConst": true,
            "modifiers": [],
            "name": "div",
            "nodeType": "FunctionDefinition",
            "parameters": {
              "id": 17873,
              "nodeType": "ParameterList",
              "parameters": [
                {
                  "constant": false,
                  "id": 17870,
                  "name": "a",
                  "nodeType": "VariableDeclaration",
                  "scope": 17882,
                  "src": "671:9:45",
                  "stateVariable": false,
                  "storageLocation": "default",
                  "typeDescriptions": {
                    "typeIdentifier": "t_uint256",
                    "typeString": "uint256"
                  },
                  "typeName": {
                    "id": 17869,
                    "name": "uint256",
                    "nodeType": "ElementaryTypeName",
                    "src": "671:7:45",
                    "typeDescriptions": {
                      "typeIdentifier": "t_uint256",
                      "typeString": "uint256"
                    }
                  },
                  "value": null,
                  "visibility": "internal"
                },
                {
                  "constant": false,
                  "id": 17872,
                  "name": "b",
                  "nodeType": "VariableDeclaration",
                  "scope": 17882,
                  "src": "682:9:45",
                  "stateVariable": false,
                  "storageLocation": "default",
                  "typeDescriptions": {
                    "typeIdentifier": "t_uint256",
                    "typeString": "uint256"
                  },
                  "typeName": {
                    "id": 17871,
                    "name": "uint256",
                    "nodeType": "ElementaryTypeName",
                    "src": "682:7:45",
                    "typeDescriptions": {
                      "typeIdentifier": "t_uint256",
                      "typeString": "uint256"
                    }
                  },
                  "value": null,
                  "visibility": "internal"
                }
              ],
              "src": "670:22:45"
            },
            "payable": false,
            "returnParameters": {
              "id": 17876,
              "nodeType": "ParameterList",
              "parameters": [
                {
                  "constant": false,
                  "id": 17875,
                  "name": "",
                  "nodeType": "VariableDeclaration",
                  "scope": 17882,
                  "src": "716:7:45",
                  "stateVariable": false,
                  "storageLocation": "default",
                  "typeDescriptions": {
                    "typeIdentifier": "t_uint256",
                    "typeString": "uint256"
                  },
                  "typeName": {
                    "id": 17874,
                    "name": "uint256",
                    "nodeType": "ElementaryTypeName",
                    "src": "716:7:45",
                    "typeDescriptions": {
                      "typeIdentifier": "t_uint256",
                      "typeString": "uint256"
                    }
                  },
                  "value": null,
                  "visibility": "internal"
                }
              ],
              "src": "715:9:45"
            },
            "scope": 17927,
            "src": "658:272:45",
            "stateMutability": "pure",
            "superFunction": null,
            "visibility": "internal"
          },
          {
            "body": {
              "id": 17901,
              "nodeType": "Block",
              "src": "1109:43:45",
              "statements": [
                {
                  "expression": {
                    "argumentTypes": null,
                    "arguments": [
                      {
                        "argumentTypes": null,
                        "commonType": {
                          "typeIdentifier": "t_uint256",
                          "typeString": "uint256"
                        },
                        "id": 17894,
                        "isConstant": false,
                        "isLValue": false,
                        "isPure": false,
                        "lValueRequested": false,
                        "leftExpression": {
                          "argumentTypes": null,
                          "id": 17892,
                          "name": "b",
                          "nodeType": "Identifier",
                          "overloadedDeclarations": [],
                          "referencedDeclaration": 17886,
                          "src": "1122:1:45",
                          "typeDescriptions": {
                            "typeIdentifier": "t_uint256",
                            "typeString": "uint256"
                          }
                        },
                        "nodeType": "BinaryOperation",
                        "operator": "<=",
                        "rightExpression": {
                          "argumentTypes": null,
                          "id": 17893,
                          "name": "a",
                          "nodeType": "Identifier",
                          "overloadedDeclarations": [],
                          "referencedDeclaration": 17884,
                          "src": "1127:1:45",
                          "typeDescriptions": {
                            "typeIdentifier": "t_uint256",
                            "typeString": "uint256"
                          }
                        },
                        "src": "1122:6:45",
                        "typeDescriptions": {
                          "typeIdentifier": "t_bool",
                          "typeString": "bool"
                        }
                      }
                    ],
                    "expression": {
                      "argumentTypes": [
                        {
                          "typeIdentifier": "t_bool",
                          "typeString": "bool"
                        }
                      ],
                      "id": 17891,
                      "name": "assert",
                      "nodeType": "Identifier",
                      "overloadedDeclarations": [],
                      "referencedDeclaration": 18865,
                      "src": "1115:6:45",
                      "typeDescriptions": {
                        "typeIdentifier": "t_function_assert_pure$_t_bool_$returns$__$",
                        "typeString": "function (bool) pure"
                      }
                    },
                    "id": 17895,
                    "isConstant": false,
                    "isLValue": false,
                    "isPure": false,
                    "kind": "functionCall",
                    "lValueRequested": false,
                    "names": [],
                    "nodeType": "FunctionCall",
                    "src": "1115:14:45",
                    "typeDescriptions": {
                      "typeIdentifier": "t_tuple$__$",
                      "typeString": "tuple()"
                    }
                  },
                  "id": 17896,
                  "nodeType": "ExpressionStatement",
                  "src": "1115:14:45"
                },
                {
                  "expression": {
                    "argumentTypes": null,
                    "commonType": {
                      "typeIdentifier": "t_uint256",
                      "typeString": "uint256"
                    },
                    "id": 17899,
                    "isConstant": false,
                    "isLValue": false,
                    "isPure": false,
                    "lValueRequested": false,
                    "leftExpression": {
                      "argumentTypes": null,
                      "id": 17897,
                      "name": "a",
                      "nodeType": "Identifier",
                      "overloadedDeclarations": [],
                      "referencedDeclaration": 17884,
                      "src": "1142:1:45",
                      "typeDescriptions": {
                        "typeIdentifier": "t_uint256",
                        "typeString": "uint256"
                      }
                    },
                    "nodeType": "BinaryOperation",
                    "operator": "-",
                    "rightExpression": {
                      "argumentTypes": null,
                      "id": 17898,
                      "name": "b",
                      "nodeType": "Identifier",
                      "overloadedDeclarations": [],
                      "referencedDeclaration": 17886,
                      "src": "1146:1:45",
                      "typeDescriptions": {
                        "typeIdentifier": "t_uint256",
                        "typeString": "uint256"
                      }
                    },
                    "src": "1142:5:45",
                    "typeDescriptions": {
                      "typeIdentifier": "t_uint256",
                      "typeString": "uint256"
                    }
                  },
                  "functionReturnParameters": 17890,
                  "id": 17900,
                  "nodeType": "Return",
                  "src": "1135:12:45"
                }
              ]
            },
            "documentation": "@dev Subtracts two numbers, throws on overflow (i.e. if subtrahend is greater than minuend).",
            "id": 17902,
            "implemented": true,
            "isConstructor": false,
            "isDeclaredConst": true,
            "modifiers": [],
            "name": "sub",
            "nodeType": "FunctionDefinition",
            "parameters": {
              "id": 17887,
              "nodeType": "ParameterList",
              "parameters": [
                {
                  "constant": false,
                  "id": 17884,
                  "name": "a",
                  "nodeType": "VariableDeclaration",
                  "scope": 17902,
                  "src": "1055:9:45",
                  "stateVariable": false,
                  "storageLocation": "default",
                  "typeDescriptions": {
                    "typeIdentifier": "t_uint256",
                    "typeString": "uint256"
                  },
                  "typeName": {
                    "id": 17883,
                    "name": "uint256",
                    "nodeType": "ElementaryTypeName",
                    "src": "1055:7:45",
                    "typeDescriptions": {
                      "typeIdentifier": "t_uint256",
                      "typeString": "uint256"
                    }
                  },
                  "value": null,
                  "visibility": "internal"
                },
                {
                  "constant": false,
                  "id": 17886,
                  "name": "b",
                  "nodeType": "VariableDeclaration",
                  "scope": 17902,
                  "src": "1066:9:45",
                  "stateVariable": false,
                  "storageLocation": "default",
                  "typeDescriptions": {
                    "typeIdentifier": "t_uint256",
                    "typeString": "uint256"
                  },
                  "typeName": {
                    "id": 17885,
                    "name": "uint256",
                    "nodeType": "ElementaryTypeName",
                    "src": "1066:7:45",
                    "typeDescriptions": {
                      "typeIdentifier": "t_uint256",
                      "typeString": "uint256"
                    }
                  },
                  "value": null,
                  "visibility": "internal"
                }
              ],
              "src": "1054:22:45"
            },
            "payable": false,
            "returnParameters": {
              "id": 17890,
              "nodeType": "ParameterList",
              "parameters": [
                {
                  "constant": false,
                  "id": 17889,
                  "name": "",
                  "nodeType": "VariableDeclaration",
                  "scope": 17902,
                  "src": "1100:7:45",
                  "stateVariable": false,
                  "storageLocation": "default",
                  "typeDescriptions": {
                    "typeIdentifier": "t_uint256",
                    "typeString": "uint256"
                  },
                  "typeName": {
                    "id": 17888,
                    "name": "uint256",
                    "nodeType": "ElementaryTypeName",
                    "src": "1100:7:45",
                    "typeDescriptions": {
                      "typeIdentifier": "t_uint256",
                      "typeString": "uint256"
                    }
                  },
                  "value": null,
                  "visibility": "internal"
                }
              ],
              "src": "1099:9:45"
            },
            "scope": 17927,
            "src": "1042:110:45",
            "stateMutability": "pure",
            "superFunction": null,
            "visibility": "internal"
          },
          {
            "body": {
              "id": 17925,
              "nodeType": "Block",
              "src": "1283:54:45",
              "statements": [
                {
                  "expression": {
                    "argumentTypes": null,
                    "id": 17915,
                    "isConstant": false,
                    "isLValue": false,
                    "isPure": false,
                    "lValueRequested": false,
                    "leftHandSide": {
                      "argumentTypes": null,
                      "id": 17911,
                      "name": "c",
                      "nodeType": "Identifier",
                      "overloadedDeclarations": [],
                      "referencedDeclaration": 17909,
                      "src": "1289:1:45",
                      "typeDescriptions": {
                        "typeIdentifier": "t_uint256",
                        "typeString": "uint256"
                      }
                    },
                    "nodeType": "Assignment",
                    "operator": "=",
                    "rightHandSide": {
                      "argumentTypes": null,
                      "commonType": {
                        "typeIdentifier": "t_uint256",
                        "typeString": "uint256"
                      },
                      "id": 17914,
                      "isConstant": false,
                      "isLValue": false,
                      "isPure": false,
                      "lValueRequested": false,
                      "leftExpression": {
                        "argumentTypes": null,
                        "id": 17912,
                        "name": "a",
                        "nodeType": "Identifier",
                        "overloadedDeclarations": [],
                        "referencedDeclaration": 17904,
                        "src": "1293:1:45",
                        "typeDescriptions": {
                          "typeIdentifier": "t_uint256",
                          "typeString": "uint256"
                        }
                      },
                      "nodeType": "BinaryOperation",
                      "operator": "+",
                      "rightExpression": {
                        "argumentTypes": null,
                        "id": 17913,
                        "name": "b",
                        "nodeType": "Identifier",
                        "overloadedDeclarations": [],
                        "referencedDeclaration": 17906,
                        "src": "1297:1:45",
                        "typeDescriptions": {
                          "typeIdentifier": "t_uint256",
                          "typeString": "uint256"
                        }
                      },
                      "src": "1293:5:45",
                      "typeDescriptions": {
                        "typeIdentifier": "t_uint256",
                        "typeString": "uint256"
                      }
                    },
                    "src": "1289:9:45",
                    "typeDescriptions": {
                      "typeIdentifier": "t_uint256",
                      "typeString": "uint256"
                    }
                  },
                  "id": 17916,
                  "nodeType": "ExpressionStatement",
                  "src": "1289:9:45"
                },
                {
                  "expression": {
                    "argumentTypes": null,
                    "arguments": [
                      {
                        "argumentTypes": null,
                        "commonType": {
                          "typeIdentifier": "t_uint256",
                          "typeString": "uint256"
                        },
                        "id": 17920,
                        "isConstant": false,
                        "isLValue": false,
                        "isPure": false,
                        "lValueRequested": false,
                        "leftExpression": {
                          "argumentTypes": null,
                          "id": 17918,
                          "name": "c",
                          "nodeType": "Identifier",
                          "overloadedDeclarations": [],
                          "referencedDeclaration": 17909,
                          "src": "1311:1:45",
                          "typeDescriptions": {
                            "typeIdentifier": "t_uint256",
                            "typeString": "uint256"
                          }
                        },
                        "nodeType": "BinaryOperation",
                        "operator": ">=",
                        "rightExpression": {
                          "argumentTypes": null,
                          "id": 17919,
                          "name": "a",
                          "nodeType": "Identifier",
                          "overloadedDeclarations": [],
                          "referencedDeclaration": 17904,
                          "src": "1316:1:45",
                          "typeDescriptions": {
                            "typeIdentifier": "t_uint256",
                            "typeString": "uint256"
                          }
                        },
                        "src": "1311:6:45",
                        "typeDescriptions": {
                          "typeIdentifier": "t_bool",
                          "typeString": "bool"
                        }
                      }
                    ],
                    "expression": {
                      "argumentTypes": [
                        {
                          "typeIdentifier": "t_bool",
                          "typeString": "bool"
                        }
                      ],
                      "id": 17917,
                      "name": "assert",
                      "nodeType": "Identifier",
                      "overloadedDeclarations": [],
                      "referencedDeclaration": 18865,
                      "src": "1304:6:45",
                      "typeDescriptions": {
                        "typeIdentifier": "t_function_assert_pure$_t_bool_$returns$__$",
                        "typeString": "function (bool) pure"
                      }
                    },
                    "id": 17921,
                    "isConstant": false,
                    "isLValue": false,
                    "isPure": false,
                    "kind": "functionCall",
                    "lValueRequested": false,
                    "names": [],
                    "nodeType": "FunctionCall",
                    "src": "1304:14:45",
                    "typeDescriptions": {
                      "typeIdentifier": "t_tuple$__$",
                      "typeString": "tuple()"
                    }
                  },
                  "id": 17922,
                  "nodeType": "ExpressionStatement",
                  "src": "1304:14:45"
                },
                {
                  "expression": {
                    "argumentTypes": null,
                    "id": 17923,
                    "name": "c",
                    "nodeType": "Identifier",
                    "overloadedDeclarations": [],
                    "referencedDeclaration": 17909,
                    "src": "1331:1:45",
                    "typeDescriptions": {
                      "typeIdentifier": "t_uint256",
                      "typeString": "uint256"
                    }
                  },
                  "functionReturnParameters": 17910,
                  "id": 17924,
                  "nodeType": "Return",
                  "src": "1324:8:45"
                }
              ]
            },
            "documentation": "@dev Adds two numbers, throws on overflow.",
            "id": 17926,
            "implemented": true,
            "isConstructor": false,
            "isDeclaredConst": true,
            "modifiers": [],
            "name": "add",
            "nodeType": "FunctionDefinition",
            "parameters": {
              "id": 17907,
              "nodeType": "ParameterList",
              "parameters": [
                {
                  "constant": false,
                  "id": 17904,
                  "name": "a",
                  "nodeType": "VariableDeclaration",
                  "scope": 17926,
                  "src": "1227:9:45",
                  "stateVariable": false,
                  "storageLocation": "default",
                  "typeDescriptions": {
                    "typeIdentifier": "t_uint256",
                    "typeString": "uint256"
                  },
                  "typeName": {
                    "id": 17903,
                    "name": "uint256",
                    "nodeType": "ElementaryTypeName",
                    "src": "1227:7:45",
                    "typeDescriptions": {
                      "typeIdentifier": "t_uint256",
                      "typeString": "uint256"
                    }
                  },
                  "value": null,
                  "visibility": "internal"
                },
                {
                  "constant": false,
                  "id": 17906,
                  "name": "b",
                  "nodeType": "VariableDeclaration",
                  "scope": 17926,
                  "src": "1238:9:45",
                  "stateVariable": false,
                  "storageLocation": "default",
                  "typeDescriptions": {
                    "typeIdentifier": "t_uint256",
                    "typeString": "uint256"
                  },
                  "typeName": {
                    "id": 17905,
                    "name": "uint256",
                    "nodeType": "ElementaryTypeName",
                    "src": "1238:7:45",
                    "typeDescriptions": {
                      "typeIdentifier": "t_uint256",
                      "typeString": "uint256"
                    }
                  },
                  "value": null,
                  "visibility": "internal"
                }
              ],
              "src": "1226:22:45"
            },
            "payable": false,
            "returnParameters": {
              "id": 17910,
              "nodeType": "ParameterList",
              "parameters": [
                {
                  "constant": false,
                  "id": 17909,
                  "name": "c",
                  "nodeType": "VariableDeclaration",
                  "scope": 17926,
                  "src": "1272:9:45",
                  "stateVariable": false,
                  "storageLocation": "default",
                  "typeDescriptions": {
                    "typeIdentifier": "t_uint256",
                    "typeString": "uint256"
                  },
                  "typeName": {
                    "id": 17908,
                    "name": "uint256",
                    "nodeType": "ElementaryTypeName",
                    "src": "1272:7:45",
                    "typeDescriptions": {
                      "typeIdentifier": "t_uint256",
                      "typeString": "uint256"
                    }
                  },
                  "value": null,
                  "visibility": "internal"
                }
              ],
              "src": "1271:11:45"
            },
            "scope": 17927,
            "src": "1214:123:45",
            "stateMutability": "pure",
            "superFunction": null,
            "visibility": "internal"
          }
        ],
        "scope": 17928,
        "src": "117:1222:45"
      }
    ],
    "src": "0:1340:45"
  },
  "legacyAST": {
    "absolutePath": "openzeppelin-solidity/contracts/math/SafeMath.sol",
    "exportedSymbols": {
      "SafeMath": [
        17927
      ]
    },
    "id": 17928,
    "nodeType": "SourceUnit",
    "nodes": [
      {
        "id": 17835,
        "literals": [
          "solidity",
          "^",
          "0.4",
          ".23"
        ],
        "nodeType": "PragmaDirective",
        "src": "0:24:45"
      },
      {
        "baseContracts": [],
        "contractDependencies": [],
        "contractKind": "library",
        "documentation": "@title SafeMath\n@dev Math operations with safety checks that throw on error",
        "fullyImplemented": true,
        "id": 17927,
        "linearizedBaseContracts": [
          17927
        ],
        "name": "SafeMath",
        "nodeType": "ContractDefinition",
        "nodes": [
          {
            "body": {
              "id": 17867,
              "nodeType": "Block",
              "src": "272:304:45",
              "statements": [
                {
                  "condition": {
                    "argumentTypes": null,
                    "commonType": {
                      "typeIdentifier": "t_uint256",
                      "typeString": "uint256"
                    },
                    "id": 17846,
                    "isConstant": false,
                    "isLValue": false,
                    "isPure": false,
                    "lValueRequested": false,
                    "leftExpression": {
                      "argumentTypes": null,
                      "id": 17844,
                      "name": "a",
                      "nodeType": "Identifier",
                      "overloadedDeclarations": [],
                      "referencedDeclaration": 17837,
                      "src": "487:1:45",
                      "typeDescriptions": {
                        "typeIdentifier": "t_uint256",
                        "typeString": "uint256"
                      }
                    },
                    "nodeType": "BinaryOperation",
                    "operator": "==",
                    "rightExpression": {
                      "argumentTypes": null,
                      "hexValue": "30",
                      "id": 17845,
                      "isConstant": false,
                      "isLValue": false,
                      "isPure": true,
                      "kind": "number",
                      "lValueRequested": false,
                      "nodeType": "Literal",
                      "src": "492:1:45",
                      "subdenomination": null,
                      "typeDescriptions": {
                        "typeIdentifier": "t_rational_0_by_1",
                        "typeString": "int_const 0"
                      },
                      "value": "0"
                    },
                    "src": "487:6:45",
                    "typeDescriptions": {
                      "typeIdentifier": "t_bool",
                      "typeString": "bool"
                    }
                  },
                  "falseBody": null,
                  "id": 17850,
                  "nodeType": "IfStatement",
                  "src": "483:35:45",
                  "trueBody": {
                    "id": 17849,
                    "nodeType": "Block",
                    "src": "495:23:45",
                    "statements": [
                      {
                        "expression": {
                          "argumentTypes": null,
                          "hexValue": "30",
                          "id": 17847,
                          "isConstant": false,
                          "isLValue": false,
                          "isPure": true,
                          "kind": "number",
                          "lValueRequested": false,
                          "nodeType": "Literal",
                          "src": "510:1:45",
                          "subdenomination": null,
                          "typeDescriptions": {
                            "typeIdentifier": "t_rational_0_by_1",
                            "typeString": "int_const 0"
                          },
                          "value": "0"
                        },
                        "functionReturnParameters": 17843,
                        "id": 17848,
                        "nodeType": "Return",
                        "src": "503:8:45"
                      }
                    ]
                  }
                },
                {
                  "expression": {
                    "argumentTypes": null,
                    "id": 17855,
                    "isConstant": false,
                    "isLValue": false,
                    "isPure": false,
                    "lValueRequested": false,
                    "leftHandSide": {
                      "argumentTypes": null,
                      "id": 17851,
                      "name": "c",
                      "nodeType": "Identifier",
                      "overloadedDeclarations": [],
                      "referencedDeclaration": 17842,
                      "src": "524:1:45",
                      "typeDescriptions": {
                        "typeIdentifier": "t_uint256",
                        "typeString": "uint256"
                      }
                    },
                    "nodeType": "Assignment",
                    "operator": "=",
                    "rightHandSide": {
                      "argumentTypes": null,
                      "commonType": {
                        "typeIdentifier": "t_uint256",
                        "typeString": "uint256"
                      },
                      "id": 17854,
                      "isConstant": false,
                      "isLValue": false,
                      "isPure": false,
                      "lValueRequested": false,
                      "leftExpression": {
                        "argumentTypes": null,
                        "id": 17852,
                        "name": "a",
                        "nodeType": "Identifier",
                        "overloadedDeclarations": [],
                        "referencedDeclaration": 17837,
                        "src": "528:1:45",
                        "typeDescriptions": {
                          "typeIdentifier": "t_uint256",
                          "typeString": "uint256"
                        }
                      },
                      "nodeType": "BinaryOperation",
                      "operator": "*",
                      "rightExpression": {
                        "argumentTypes": null,
                        "id": 17853,
                        "name": "b",
                        "nodeType": "Identifier",
                        "overloadedDeclarations": [],
                        "referencedDeclaration": 17839,
                        "src": "532:1:45",
                        "typeDescriptions": {
                          "typeIdentifier": "t_uint256",
                          "typeString": "uint256"
                        }
                      },
                      "src": "528:5:45",
                      "typeDescriptions": {
                        "typeIdentifier": "t_uint256",
                        "typeString": "uint256"
                      }
                    },
                    "src": "524:9:45",
                    "typeDescriptions": {
                      "typeIdentifier": "t_uint256",
                      "typeString": "uint256"
                    }
                  },
                  "id": 17856,
                  "nodeType": "ExpressionStatement",
                  "src": "524:9:45"
                },
                {
                  "expression": {
                    "argumentTypes": null,
                    "arguments": [
                      {
                        "argumentTypes": null,
                        "commonType": {
                          "typeIdentifier": "t_uint256",
                          "typeString": "uint256"
                        },
                        "id": 17862,
                        "isConstant": false,
                        "isLValue": false,
                        "isPure": false,
                        "lValueRequested": false,
                        "leftExpression": {
                          "argumentTypes": null,
                          "commonType": {
                            "typeIdentifier": "t_uint256",
                            "typeString": "uint256"
                          },
                          "id": 17860,
                          "isConstant": false,
                          "isLValue": false,
                          "isPure": false,
                          "lValueRequested": false,
                          "leftExpression": {
                            "argumentTypes": null,
                            "id": 17858,
                            "name": "c",
                            "nodeType": "Identifier",
                            "overloadedDeclarations": [],
                            "referencedDeclaration": 17842,
                            "src": "546:1:45",
                            "typeDescriptions": {
                              "typeIdentifier": "t_uint256",
                              "typeString": "uint256"
                            }
                          },
                          "nodeType": "BinaryOperation",
                          "operator": "/",
                          "rightExpression": {
                            "argumentTypes": null,
                            "id": 17859,
                            "name": "a",
                            "nodeType": "Identifier",
                            "overloadedDeclarations": [],
                            "referencedDeclaration": 17837,
                            "src": "550:1:45",
                            "typeDescriptions": {
                              "typeIdentifier": "t_uint256",
                              "typeString": "uint256"
                            }
                          },
                          "src": "546:5:45",
                          "typeDescriptions": {
                            "typeIdentifier": "t_uint256",
                            "typeString": "uint256"
                          }
                        },
                        "nodeType": "BinaryOperation",
                        "operator": "==",
                        "rightExpression": {
                          "argumentTypes": null,
                          "id": 17861,
                          "name": "b",
                          "nodeType": "Identifier",
                          "overloadedDeclarations": [],
                          "referencedDeclaration": 17839,
                          "src": "555:1:45",
                          "typeDescriptions": {
                            "typeIdentifier": "t_uint256",
                            "typeString": "uint256"
                          }
                        },
                        "src": "546:10:45",
                        "typeDescriptions": {
                          "typeIdentifier": "t_bool",
                          "typeString": "bool"
                        }
                      }
                    ],
                    "expression": {
                      "argumentTypes": [
                        {
                          "typeIdentifier": "t_bool",
                          "typeString": "bool"
                        }
                      ],
                      "id": 17857,
                      "name": "assert",
                      "nodeType": "Identifier",
                      "overloadedDeclarations": [],
                      "referencedDeclaration": 18865,
                      "src": "539:6:45",
                      "typeDescriptions": {
                        "typeIdentifier": "t_function_assert_pure$_t_bool_$returns$__$",
                        "typeString": "function (bool) pure"
                      }
                    },
                    "id": 17863,
                    "isConstant": false,
                    "isLValue": false,
                    "isPure": false,
                    "kind": "functionCall",
                    "lValueRequested": false,
                    "names": [],
                    "nodeType": "FunctionCall",
                    "src": "539:18:45",
                    "typeDescriptions": {
                      "typeIdentifier": "t_tuple$__$",
                      "typeString": "tuple()"
                    }
                  },
                  "id": 17864,
                  "nodeType": "ExpressionStatement",
                  "src": "539:18:45"
                },
                {
                  "expression": {
                    "argumentTypes": null,
                    "id": 17865,
                    "name": "c",
                    "nodeType": "Identifier",
                    "overloadedDeclarations": [],
                    "referencedDeclaration": 17842,
                    "src": "570:1:45",
                    "typeDescriptions": {
                      "typeIdentifier": "t_uint256",
                      "typeString": "uint256"
                    }
                  },
                  "functionReturnParameters": 17843,
                  "id": 17866,
                  "nodeType": "Return",
                  "src": "563:8:45"
                }
              ]
            },
            "documentation": "@dev Multiplies two numbers, throws on overflow.",
            "id": 17868,
            "implemented": true,
            "isConstructor": false,
            "isDeclaredConst": true,
            "modifiers": [],
            "name": "mul",
            "nodeType": "FunctionDefinition",
            "parameters": {
              "id": 17840,
              "nodeType": "ParameterList",
              "parameters": [
                {
                  "constant": false,
                  "id": 17837,
                  "name": "a",
                  "nodeType": "VariableDeclaration",
                  "scope": 17868,
                  "src": "216:9:45",
                  "stateVariable": false,
                  "storageLocation": "default",
                  "typeDescriptions": {
                    "typeIdentifier": "t_uint256",
                    "typeString": "uint256"
                  },
                  "typeName": {
                    "id": 17836,
                    "name": "uint256",
                    "nodeType": "ElementaryTypeName",
                    "src": "216:7:45",
                    "typeDescriptions": {
                      "typeIdentifier": "t_uint256",
                      "typeString": "uint256"
                    }
                  },
                  "value": null,
                  "visibility": "internal"
                },
                {
                  "constant": false,
                  "id": 17839,
                  "name": "b",
                  "nodeType": "VariableDeclaration",
                  "scope": 17868,
                  "src": "227:9:45",
                  "stateVariable": false,
                  "storageLocation": "default",
                  "typeDescriptions": {
                    "typeIdentifier": "t_uint256",
                    "typeString": "uint256"
                  },
                  "typeName": {
                    "id": 17838,
                    "name": "uint256",
                    "nodeType": "ElementaryTypeName",
                    "src": "227:7:45",
                    "typeDescriptions": {
                      "typeIdentifier": "t_uint256",
                      "typeString": "uint256"
                    }
                  },
                  "value": null,
                  "visibility": "internal"
                }
              ],
              "src": "215:22:45"
            },
            "payable": false,
            "returnParameters": {
              "id": 17843,
              "nodeType": "ParameterList",
              "parameters": [
                {
                  "constant": false,
                  "id": 17842,
                  "name": "c",
                  "nodeType": "VariableDeclaration",
                  "scope": 17868,
                  "src": "261:9:45",
                  "stateVariable": false,
                  "storageLocation": "default",
                  "typeDescriptions": {
                    "typeIdentifier": "t_uint256",
                    "typeString": "uint256"
                  },
                  "typeName": {
                    "id": 17841,
                    "name": "uint256",
                    "nodeType": "ElementaryTypeName",
                    "src": "261:7:45",
                    "typeDescriptions": {
                      "typeIdentifier": "t_uint256",
                      "typeString": "uint256"
                    }
                  },
                  "value": null,
                  "visibility": "internal"
                }
              ],
              "src": "260:11:45"
            },
            "scope": 17927,
            "src": "203:373:45",
            "stateMutability": "pure",
            "superFunction": null,
            "visibility": "internal"
          },
          {
            "body": {
              "id": 17881,
              "nodeType": "Block",
              "src": "725:205:45",
              "statements": [
                {
                  "expression": {
                    "argumentTypes": null,
                    "commonType": {
                      "typeIdentifier": "t_uint256",
                      "typeString": "uint256"
                    },
                    "id": 17879,
                    "isConstant": false,
                    "isLValue": false,
                    "isPure": false,
                    "lValueRequested": false,
                    "leftExpression": {
                      "argumentTypes": null,
                      "id": 17877,
                      "name": "a",
                      "nodeType": "Identifier",
                      "overloadedDeclarations": [],
                      "referencedDeclaration": 17870,
                      "src": "920:1:45",
                      "typeDescriptions": {
                        "typeIdentifier": "t_uint256",
                        "typeString": "uint256"
                      }
                    },
                    "nodeType": "BinaryOperation",
                    "operator": "/",
                    "rightExpression": {
                      "argumentTypes": null,
                      "id": 17878,
                      "name": "b",
                      "nodeType": "Identifier",
                      "overloadedDeclarations": [],
                      "referencedDeclaration": 17872,
                      "src": "924:1:45",
                      "typeDescriptions": {
                        "typeIdentifier": "t_uint256",
                        "typeString": "uint256"
                      }
                    },
                    "src": "920:5:45",
                    "typeDescriptions": {
                      "typeIdentifier": "t_uint256",
                      "typeString": "uint256"
                    }
                  },
                  "functionReturnParameters": 17876,
                  "id": 17880,
                  "nodeType": "Return",
                  "src": "913:12:45"
                }
              ]
            },
            "documentation": "@dev Integer division of two numbers, truncating the quotient.",
            "id": 17882,
            "implemented": true,
            "isConstructor": false,
            "isDeclaredConst": true,
            "modifiers": [],
            "name": "div",
            "nodeType": "FunctionDefinition",
            "parameters": {
              "id": 17873,
              "nodeType": "ParameterList",
              "parameters": [
                {
                  "constant": false,
                  "id": 17870,
                  "name": "a",
                  "nodeType": "VariableDeclaration",
                  "scope": 17882,
                  "src": "671:9:45",
                  "stateVariable": false,
                  "storageLocation": "default",
                  "typeDescriptions": {
                    "typeIdentifier": "t_uint256",
                    "typeString": "uint256"
                  },
                  "typeName": {
                    "id": 17869,
                    "name": "uint256",
                    "nodeType": "ElementaryTypeName",
                    "src": "671:7:45",
                    "typeDescriptions": {
                      "typeIdentifier": "t_uint256",
                      "typeString": "uint256"
                    }
                  },
                  "value": null,
                  "visibility": "internal"
                },
                {
                  "constant": false,
                  "id": 17872,
                  "name": "b",
                  "nodeType": "VariableDeclaration",
                  "scope": 17882,
                  "src": "682:9:45",
                  "stateVariable": false,
                  "storageLocation": "default",
                  "typeDescriptions": {
                    "typeIdentifier": "t_uint256",
                    "typeString": "uint256"
                  },
                  "typeName": {
                    "id": 17871,
                    "name": "uint256",
                    "nodeType": "ElementaryTypeName",
                    "src": "682:7:45",
                    "typeDescriptions": {
                      "typeIdentifier": "t_uint256",
                      "typeString": "uint256"
                    }
                  },
                  "value": null,
                  "visibility": "internal"
                }
              ],
              "src": "670:22:45"
            },
            "payable": false,
            "returnParameters": {
              "id": 17876,
              "nodeType": "ParameterList",
              "parameters": [
                {
                  "constant": false,
                  "id": 17875,
                  "name": "",
                  "nodeType": "VariableDeclaration",
                  "scope": 17882,
                  "src": "716:7:45",
                  "stateVariable": false,
                  "storageLocation": "default",
                  "typeDescriptions": {
                    "typeIdentifier": "t_uint256",
                    "typeString": "uint256"
                  },
                  "typeName": {
                    "id": 17874,
                    "name": "uint256",
                    "nodeType": "ElementaryTypeName",
                    "src": "716:7:45",
                    "typeDescriptions": {
                      "typeIdentifier": "t_uint256",
                      "typeString": "uint256"
                    }
                  },
                  "value": null,
                  "visibility": "internal"
                }
              ],
              "src": "715:9:45"
            },
            "scope": 17927,
            "src": "658:272:45",
            "stateMutability": "pure",
            "superFunction": null,
            "visibility": "internal"
          },
          {
            "body": {
              "id": 17901,
              "nodeType": "Block",
              "src": "1109:43:45",
              "statements": [
                {
                  "expression": {
                    "argumentTypes": null,
                    "arguments": [
                      {
                        "argumentTypes": null,
                        "commonType": {
                          "typeIdentifier": "t_uint256",
                          "typeString": "uint256"
                        },
                        "id": 17894,
                        "isConstant": false,
                        "isLValue": false,
                        "isPure": false,
                        "lValueRequested": false,
                        "leftExpression": {
                          "argumentTypes": null,
                          "id": 17892,
                          "name": "b",
                          "nodeType": "Identifier",
                          "overloadedDeclarations": [],
                          "referencedDeclaration": 17886,
                          "src": "1122:1:45",
                          "typeDescriptions": {
                            "typeIdentifier": "t_uint256",
                            "typeString": "uint256"
                          }
                        },
                        "nodeType": "BinaryOperation",
                        "operator": "<=",
                        "rightExpression": {
                          "argumentTypes": null,
                          "id": 17893,
                          "name": "a",
                          "nodeType": "Identifier",
                          "overloadedDeclarations": [],
                          "referencedDeclaration": 17884,
                          "src": "1127:1:45",
                          "typeDescriptions": {
                            "typeIdentifier": "t_uint256",
                            "typeString": "uint256"
                          }
                        },
                        "src": "1122:6:45",
                        "typeDescriptions": {
                          "typeIdentifier": "t_bool",
                          "typeString": "bool"
                        }
                      }
                    ],
                    "expression": {
                      "argumentTypes": [
                        {
                          "typeIdentifier": "t_bool",
                          "typeString": "bool"
                        }
                      ],
                      "id": 17891,
                      "name": "assert",
                      "nodeType": "Identifier",
                      "overloadedDeclarations": [],
                      "referencedDeclaration": 18865,
                      "src": "1115:6:45",
                      "typeDescriptions": {
                        "typeIdentifier": "t_function_assert_pure$_t_bool_$returns$__$",
                        "typeString": "function (bool) pure"
                      }
                    },
                    "id": 17895,
                    "isConstant": false,
                    "isLValue": false,
                    "isPure": false,
                    "kind": "functionCall",
                    "lValueRequested": false,
                    "names": [],
                    "nodeType": "FunctionCall",
                    "src": "1115:14:45",
                    "typeDescriptions": {
                      "typeIdentifier": "t_tuple$__$",
                      "typeString": "tuple()"
                    }
                  },
                  "id": 17896,
                  "nodeType": "ExpressionStatement",
                  "src": "1115:14:45"
                },
                {
                  "expression": {
                    "argumentTypes": null,
                    "commonType": {
                      "typeIdentifier": "t_uint256",
                      "typeString": "uint256"
                    },
                    "id": 17899,
                    "isConstant": false,
                    "isLValue": false,
                    "isPure": false,
                    "lValueRequested": false,
                    "leftExpression": {
                      "argumentTypes": null,
                      "id": 17897,
                      "name": "a",
                      "nodeType": "Identifier",
                      "overloadedDeclarations": [],
                      "referencedDeclaration": 17884,
                      "src": "1142:1:45",
                      "typeDescriptions": {
                        "typeIdentifier": "t_uint256",
                        "typeString": "uint256"
                      }
                    },
                    "nodeType": "BinaryOperation",
                    "operator": "-",
                    "rightExpression": {
                      "argumentTypes": null,
                      "id": 17898,
                      "name": "b",
                      "nodeType": "Identifier",
                      "overloadedDeclarations": [],
                      "referencedDeclaration": 17886,
                      "src": "1146:1:45",
                      "typeDescriptions": {
                        "typeIdentifier": "t_uint256",
                        "typeString": "uint256"
                      }
                    },
                    "src": "1142:5:45",
                    "typeDescriptions": {
                      "typeIdentifier": "t_uint256",
                      "typeString": "uint256"
                    }
                  },
                  "functionReturnParameters": 17890,
                  "id": 17900,
                  "nodeType": "Return",
                  "src": "1135:12:45"
                }
              ]
            },
            "documentation": "@dev Subtracts two numbers, throws on overflow (i.e. if subtrahend is greater than minuend).",
            "id": 17902,
            "implemented": true,
            "isConstructor": false,
            "isDeclaredConst": true,
            "modifiers": [],
            "name": "sub",
            "nodeType": "FunctionDefinition",
            "parameters": {
              "id": 17887,
              "nodeType": "ParameterList",
              "parameters": [
                {
                  "constant": false,
                  "id": 17884,
                  "name": "a",
                  "nodeType": "VariableDeclaration",
                  "scope": 17902,
                  "src": "1055:9:45",
                  "stateVariable": false,
                  "storageLocation": "default",
                  "typeDescriptions": {
                    "typeIdentifier": "t_uint256",
                    "typeString": "uint256"
                  },
                  "typeName": {
                    "id": 17883,
                    "name": "uint256",
                    "nodeType": "ElementaryTypeName",
                    "src": "1055:7:45",
                    "typeDescriptions": {
                      "typeIdentifier": "t_uint256",
                      "typeString": "uint256"
                    }
                  },
                  "value": null,
                  "visibility": "internal"
                },
                {
                  "constant": false,
                  "id": 17886,
                  "name": "b",
                  "nodeType": "VariableDeclaration",
                  "scope": 17902,
                  "src": "1066:9:45",
                  "stateVariable": false,
                  "storageLocation": "default",
                  "typeDescriptions": {
                    "typeIdentifier": "t_uint256",
                    "typeString": "uint256"
                  },
                  "typeName": {
                    "id": 17885,
                    "name": "uint256",
                    "nodeType": "ElementaryTypeName",
                    "src": "1066:7:45",
                    "typeDescriptions": {
                      "typeIdentifier": "t_uint256",
                      "typeString": "uint256"
                    }
                  },
                  "value": null,
                  "visibility": "internal"
                }
              ],
              "src": "1054:22:45"
            },
            "payable": false,
            "returnParameters": {
              "id": 17890,
              "nodeType": "ParameterList",
              "parameters": [
                {
                  "constant": false,
                  "id": 17889,
                  "name": "",
                  "nodeType": "VariableDeclaration",
                  "scope": 17902,
                  "src": "1100:7:45",
                  "stateVariable": false,
                  "storageLocation": "default",
                  "typeDescriptions": {
                    "typeIdentifier": "t_uint256",
                    "typeString": "uint256"
                  },
                  "typeName": {
                    "id": 17888,
                    "name": "uint256",
                    "nodeType": "ElementaryTypeName",
                    "src": "1100:7:45",
                    "typeDescriptions": {
                      "typeIdentifier": "t_uint256",
                      "typeString": "uint256"
                    }
                  },
                  "value": null,
                  "visibility": "internal"
                }
              ],
              "src": "1099:9:45"
            },
            "scope": 17927,
            "src": "1042:110:45",
            "stateMutability": "pure",
            "superFunction": null,
            "visibility": "internal"
          },
          {
            "body": {
              "id": 17925,
              "nodeType": "Block",
              "src": "1283:54:45",
              "statements": [
                {
                  "expression": {
                    "argumentTypes": null,
                    "id": 17915,
                    "isConstant": false,
                    "isLValue": false,
                    "isPure": false,
                    "lValueRequested": false,
                    "leftHandSide": {
                      "argumentTypes": null,
                      "id": 17911,
                      "name": "c",
                      "nodeType": "Identifier",
                      "overloadedDeclarations": [],
                      "referencedDeclaration": 17909,
                      "src": "1289:1:45",
                      "typeDescriptions": {
                        "typeIdentifier": "t_uint256",
                        "typeString": "uint256"
                      }
                    },
                    "nodeType": "Assignment",
                    "operator": "=",
                    "rightHandSide": {
                      "argumentTypes": null,
                      "commonType": {
                        "typeIdentifier": "t_uint256",
                        "typeString": "uint256"
                      },
                      "id": 17914,
                      "isConstant": false,
                      "isLValue": false,
                      "isPure": false,
                      "lValueRequested": false,
                      "leftExpression": {
                        "argumentTypes": null,
                        "id": 17912,
                        "name": "a",
                        "nodeType": "Identifier",
                        "overloadedDeclarations": [],
                        "referencedDeclaration": 17904,
                        "src": "1293:1:45",
                        "typeDescriptions": {
                          "typeIdentifier": "t_uint256",
                          "typeString": "uint256"
                        }
                      },
                      "nodeType": "BinaryOperation",
                      "operator": "+",
                      "rightExpression": {
                        "argumentTypes": null,
                        "id": 17913,
                        "name": "b",
                        "nodeType": "Identifier",
                        "overloadedDeclarations": [],
                        "referencedDeclaration": 17906,
                        "src": "1297:1:45",
                        "typeDescriptions": {
                          "typeIdentifier": "t_uint256",
                          "typeString": "uint256"
                        }
                      },
                      "src": "1293:5:45",
                      "typeDescriptions": {
                        "typeIdentifier": "t_uint256",
                        "typeString": "uint256"
                      }
                    },
                    "src": "1289:9:45",
                    "typeDescriptions": {
                      "typeIdentifier": "t_uint256",
                      "typeString": "uint256"
                    }
                  },
                  "id": 17916,
                  "nodeType": "ExpressionStatement",
                  "src": "1289:9:45"
                },
                {
                  "expression": {
                    "argumentTypes": null,
                    "arguments": [
                      {
                        "argumentTypes": null,
                        "commonType": {
                          "typeIdentifier": "t_uint256",
                          "typeString": "uint256"
                        },
                        "id": 17920,
                        "isConstant": false,
                        "isLValue": false,
                        "isPure": false,
                        "lValueRequested": false,
                        "leftExpression": {
                          "argumentTypes": null,
                          "id": 17918,
                          "name": "c",
                          "nodeType": "Identifier",
                          "overloadedDeclarations": [],
                          "referencedDeclaration": 17909,
                          "src": "1311:1:45",
                          "typeDescriptions": {
                            "typeIdentifier": "t_uint256",
                            "typeString": "uint256"
                          }
                        },
                        "nodeType": "BinaryOperation",
                        "operator": ">=",
                        "rightExpression": {
                          "argumentTypes": null,
                          "id": 17919,
                          "name": "a",
                          "nodeType": "Identifier",
                          "overloadedDeclarations": [],
                          "referencedDeclaration": 17904,
                          "src": "1316:1:45",
                          "typeDescriptions": {
                            "typeIdentifier": "t_uint256",
                            "typeString": "uint256"
                          }
                        },
                        "src": "1311:6:45",
                        "typeDescriptions": {
                          "typeIdentifier": "t_bool",
                          "typeString": "bool"
                        }
                      }
                    ],
                    "expression": {
                      "argumentTypes": [
                        {
                          "typeIdentifier": "t_bool",
                          "typeString": "bool"
                        }
                      ],
                      "id": 17917,
                      "name": "assert",
                      "nodeType": "Identifier",
                      "overloadedDeclarations": [],
                      "referencedDeclaration": 18865,
                      "src": "1304:6:45",
                      "typeDescriptions": {
                        "typeIdentifier": "t_function_assert_pure$_t_bool_$returns$__$",
                        "typeString": "function (bool) pure"
                      }
                    },
                    "id": 17921,
                    "isConstant": false,
                    "isLValue": false,
                    "isPure": false,
                    "kind": "functionCall",
                    "lValueRequested": false,
                    "names": [],
                    "nodeType": "FunctionCall",
                    "src": "1304:14:45",
                    "typeDescriptions": {
                      "typeIdentifier": "t_tuple$__$",
                      "typeString": "tuple()"
                    }
                  },
                  "id": 17922,
                  "nodeType": "ExpressionStatement",
                  "src": "1304:14:45"
                },
                {
                  "expression": {
                    "argumentTypes": null,
                    "id": 17923,
                    "name": "c",
                    "nodeType": "Identifier",
                    "overloadedDeclarations": [],
                    "referencedDeclaration": 17909,
                    "src": "1331:1:45",
                    "typeDescriptions": {
                      "typeIdentifier": "t_uint256",
                      "typeString": "uint256"
                    }
                  },
                  "functionReturnParameters": 17910,
                  "id": 17924,
                  "nodeType": "Return",
                  "src": "1324:8:45"
                }
              ]
            },
            "documentation": "@dev Adds two numbers, throws on overflow.",
            "id": 17926,
            "implemented": true,
            "isConstructor": false,
            "isDeclaredConst": true,
            "modifiers": [],
            "name": "add",
            "nodeType": "FunctionDefinition",
            "parameters": {
              "id": 17907,
              "nodeType": "ParameterList",
              "parameters": [
                {
                  "constant": false,
                  "id": 17904,
                  "name": "a",
                  "nodeType": "VariableDeclaration",
                  "scope": 17926,
                  "src": "1227:9:45",
                  "stateVariable": false,
                  "storageLocation": "default",
                  "typeDescriptions": {
                    "typeIdentifier": "t_uint256",
                    "typeString": "uint256"
                  },
                  "typeName": {
                    "id": 17903,
                    "name": "uint256",
                    "nodeType": "ElementaryTypeName",
                    "src": "1227:7:45",
                    "typeDescriptions": {
                      "typeIdentifier": "t_uint256",
                      "typeString": "uint256"
                    }
                  },
                  "value": null,
                  "visibility": "internal"
                },
                {
                  "constant": false,
                  "id": 17906,
                  "name": "b",
                  "nodeType": "VariableDeclaration",
                  "scope": 17926,
                  "src": "1238:9:45",
                  "stateVariable": false,
                  "storageLocation": "default",
                  "typeDescriptions": {
                    "typeIdentifier": "t_uint256",
                    "typeString": "uint256"
                  },
                  "typeName": {
                    "id": 17905,
                    "name": "uint256",
                    "nodeType": "ElementaryTypeName",
                    "src": "1238:7:45",
                    "typeDescriptions": {
                      "typeIdentifier": "t_uint256",
                      "typeString": "uint256"
                    }
                  },
                  "value": null,
                  "visibility": "internal"
                }
              ],
              "src": "1226:22:45"
            },
            "payable": false,
            "returnParameters": {
              "id": 17910,
              "nodeType": "ParameterList",
              "parameters": [
                {
                  "constant": false,
                  "id": 17909,
                  "name": "c",
                  "nodeType": "VariableDeclaration",
                  "scope": 17926,
                  "src": "1272:9:45",
                  "stateVariable": false,
                  "storageLocation": "default",
                  "typeDescriptions": {
                    "typeIdentifier": "t_uint256",
                    "typeString": "uint256"
                  },
                  "typeName": {
                    "id": 17908,
                    "name": "uint256",
                    "nodeType": "ElementaryTypeName",
                    "src": "1272:7:45",
                    "typeDescriptions": {
                      "typeIdentifier": "t_uint256",
                      "typeString": "uint256"
                    }
                  },
                  "value": null,
                  "visibility": "internal"
                }
              ],
              "src": "1271:11:45"
            },
            "scope": 17927,
            "src": "1214:123:45",
            "stateMutability": "pure",
            "superFunction": null,
            "visibility": "internal"
          }
        ],
        "scope": 17928,
        "src": "117:1222:45"
      }
    ],
    "src": "0:1340:45"
  },
  "compiler": {
    "name": "solc",
    "version": "0.4.24+commit.e67f0147.Emscripten.clang"
  },
  "networks": {},
  "schemaVersion": "2.0.0",
  "updatedAt": "2018-07-21T19:08:34.410Z"
}